[{
        "postal_code": "10100",
        "province": "BANGKOK",
        "district": "POMPRAB/SUMP"
    },
    {
        "postal_code": "10110",
        "province": "BANGKOK",
        "district": "KLONGTOEY"
    },
    {
        "postal_code": "10120",
        "province": "BANGKOK",
        "district": "BANGKHOLEAM/"
    },
    {
        "postal_code": "10130",
        "province": "SAMUT PRAKARN",
        "district": "PRA-PRADAENG"
    },
    {
        "postal_code": "10140",
        "province": "BANGKOK",
        "district": "RACHABURANA"
    },
    {
        "postal_code": "10150",
        "province": "BANGKOK",
        "district": "JOMTHONG/BAN"
    },
    {
        "postal_code": "10160",
        "province": "BANGKOK",
        "district": "PASICHAROEN/"
    },
    {
        "postal_code": "10170",
        "province": "BANGKOK",
        "district": "TALINGCHUAN"
    },
    {
        "postal_code": "10200",
        "province": "BANGKOK",
        "district": "PRANAKORN"
    },
    {
        "postal_code": "10210",
        "province": "BANGKOK",
        "district": "DONMUANG"
    },
    {
        "postal_code": "10220",
        "province": "BANGKOK",
        "district": "BANGKAEN"
    },
    {
        "postal_code": "10230",
        "province": "BANGKOK",
        "district": "LARDPRAW"
    },
    {
        "postal_code": "10240",
        "province": "BANGKOK",
        "district": "BANGKAPI"
    },
    {
        "postal_code": "10250",
        "province": "BANGKOK",
        "district": "PRAVES"
    },
    {
        "postal_code": "10260",
        "province": "BANGKOK",
        "district": "PRAKHANONG"
    },
    {
        "postal_code": "10270",
        "province": "SAMUT PRAKARN",
        "district": "MUANG"
    },
    {
        "postal_code": "10280",
        "province": "SAMUT PRAKARN",
        "district": "BANGPOO"
    },
    {
        "postal_code": "10290",
        "province": "SAMUT PRAKARN",
        "district": "PRA-SAMUTCHE"
    },
    {
        "postal_code": "10300",
        "province": "BANGKOK",
        "district": "DUSIT"
    },
    {
        "postal_code": "10310",
        "province": "BANGKOK",
        "district": "LADPRAO"
    },
    {
        "postal_code": "10320",
        "province": "BANGKOK",
        "district": "HUAYKWANG"
    },
    {
        "postal_code": "10330",
        "province": "BANGKOK",
        "district": "PATHUMWAN"
    },
    {
        "postal_code": "10400",
        "province": "BANGKOK",
        "district": "PAYATHAI/RAC"
    },
    {
        "postal_code": "10500",
        "province": "BANGKOK",
        "district": "BANGRAK"
    },
    {
        "postal_code": "10510",
        "province": "BANGKOK",
        "district": "MEANBURI"
    },
    {
        "postal_code": "10520",
        "province": "BANGKOK",
        "district": "LARDKRABANG"
    },
    {
        "postal_code": "10530",
        "province": "BANGKOK",
        "district": "NONGCHONG"
    },
    {
        "postal_code": "10540",
        "province": "SAMUT PRAKARN",
        "district": "BANG-PLEE"
    },
    {
        "postal_code": "10550",
        "province": "SAMUT PRAKARN",
        "district": "BANGPOO-KAO"
    },
    {
        "postal_code": "10560",
        "province": "SAMUT PRAKARN",
        "district": "BANG-BOU"
    },
    {
        "postal_code": "10600",
        "province": "BANGKOK",
        "district": "KLONGSAN/THO"
    },
    {
        "postal_code": "10700",
        "province": "BANGKOK",
        "district": "BANGKOKNOI/B"
    },
    {
        "postal_code": "10800",
        "province": "BANGKOK",
        "district": "BANGSUE"
    },
    {
        "postal_code": "10900",
        "province": "BANGKOK",
        "district": "CHATUCHUK"
    },
    {
        "postal_code": "11000",
        "province": "NONTHABURI",
        "district": "MUANG"
    },
    {
        "postal_code": "11110",
        "province": "NONTHABURI",
        "district": "BANGBUATHONG"
    },
    {
        "postal_code": "11120",
        "province": "NONTHABURI",
        "district": "PARKKRED"
    },
    {
        "postal_code": "11130",
        "province": "NONTHABURI",
        "district": "BANGKRAW"
    },
    {
        "postal_code": "11140",
        "province": "NONTHABURI",
        "district": "BANGYAI"
    },
    {
        "postal_code": "11150",
        "province": "NONTHABURI",
        "district": "TAI-NOI"
    },
    {
        "postal_code": "12000",
        "province": "PATHUM THANI",
        "district": "MUANG"
    },
    {
        "postal_code": "12110",
        "province": "PATHUM THANI",
        "district": "THUNYABURI"
    },
    {
        "postal_code": "12120",
        "province": "PATHUM THANI",
        "district": "KLONGLUANG"
    },
    {
        "postal_code": "12130",
        "province": "PATHUM THANI",
        "district": "KOOKOT"
    },
    {
        "postal_code": "12140",
        "province": "PATHUM THANI",
        "district": "LARDLUMKAEW"
    },
    {
        "postal_code": "12150",
        "province": "PATHUM THANI",
        "district": "LUMLOOKKA"
    },
    {
        "postal_code": "12160",
        "province": "PATHUM THANI",
        "district": "SARMKOK"
    },
    {
        "postal_code": "12170",
        "province": "PATHUM THANI",
        "district": "NONGSUA"
    },
    {
        "postal_code": "13000",
        "province": "AYUDHAYA",
        "district": "MUANG"
    },
    {
        "postal_code": "13110",
        "province": "AYUDHAYA",
        "district": "SAE-NA"
    },
    {
        "postal_code": "13120",
        "province": "AYUDHAYA",
        "district": "PHUK-HAI"
    },
    {
        "postal_code": "13130",
        "province": "AYUDHAYA",
        "district": "THA-RUA"
    },
    {
        "postal_code": "13140",
        "province": "AYUDHAYA",
        "district": "PHA-CHEE"
    },
    {
        "postal_code": "13150",
        "province": "AYUDHAYA",
        "district": "MAHARAT"
    },
    {
        "postal_code": "13160",
        "province": "AYUDHAYA",
        "district": "BANG-PA-IN"
    },
    {
        "postal_code": "13170",
        "province": "AYUDHAYA",
        "district": "WANGNOI"
    },
    {
        "postal_code": "13180",
        "province": "AYUDHAYA",
        "district": "PATUNAM-PHA-"
    },
    {
        "postal_code": "13190",
        "province": "AYUDHAYA",
        "district": "BANG-STAI"
    },
    {
        "postal_code": "13210",
        "province": "AYUDHAYA",
        "district": "U-THAI"
    },
    {
        "postal_code": "13220",
        "province": "AYUDHAYA",
        "district": "BANG-PAHAN"
    },
    {
        "postal_code": "13230",
        "province": "AYUDHAYA",
        "district": "LARD-BUALUAN"
    },
    {
        "postal_code": "13240",
        "province": "AYUDHAYA",
        "district": "BANN-PHRAK"
    },
    {
        "postal_code": "13250",
        "province": "AYUDHAYA",
        "district": "BANG-BAL"
    },
    {
        "postal_code": "13260",
        "province": "AYUDHAYA",
        "district": "NAKORNLUANG"
    },
    {
        "postal_code": "13270",
        "province": "AYUDHAYA",
        "district": "BANGSAY"
    },
    {
        "postal_code": "13280",
        "province": "AYUDHAYA",
        "district": "LAMTAKIEN"
    },
    {
        "postal_code": "13290",
        "province": "AYUDHAYA",
        "district": "CHIANGRAKNOI"
    },
    {
        "postal_code": "14000",
        "province": "ANG THONG",
        "district": "MUANG"
    },
    {
        "postal_code": "14110",
        "province": "ANG THONG",
        "district": "VISED-CHAICH"
    },
    {
        "postal_code": "14120",
        "province": "ANG THONG",
        "district": "PHO-THONG"
    },
    {
        "postal_code": "14130",
        "province": "ANG THONG",
        "district": "PHA-MOK"
    },
    {
        "postal_code": "14140",
        "province": "ANG THONG",
        "district": "CHAI-YO"
    },
    {
        "postal_code": "14150",
        "province": "ANG THONG",
        "district": "SWHANG-HA"
    },
    {
        "postal_code": "14160",
        "province": "ANG THONG",
        "district": "SARM-KO"
    },
    {
        "postal_code": "15000",
        "province": "LOPBURI",
        "district": "MUANG"
    },
    {
        "postal_code": "15110",
        "province": "LOPBURI",
        "district": "BANN-MHEE"
    },
    {
        "postal_code": "15120",
        "province": "LOPBURI",
        "district": "KOK-SUMRONG"
    },
    {
        "postal_code": "15130",
        "province": "LOPBURI",
        "district": "CHAIBADAL"
    },
    {
        "postal_code": "15140",
        "province": "LOPBURI",
        "district": "PATTANA-NIKO"
    },
    {
        "postal_code": "15150",
        "province": "LOPBURI",
        "district": "THA-WUNG"
    },
    {
        "postal_code": "15160",
        "province": "LOPBURI",
        "district": "KOK KRATIEM"
    },
    {
        "postal_code": "15170",
        "province": "LOPBURI",
        "district": "Nong-Maung"
    },
    {
        "postal_code": "15180",
        "province": "LOPBURI",
        "district": "THA KLONG"
    },
    {
        "postal_code": "15190",
        "province": "LOPBURI",
        "district": "LUM-SONTHI"
    },
    {
        "postal_code": "15210",
        "province": "LOPBURI",
        "district": "KOK THOOM"
    },
    {
        "postal_code": "15220",
        "province": "LOPBURI",
        "district": "DEELANG"
    },
    {
        "postal_code": "15230",
        "province": "LOPBURI",
        "district": "THA-LUANG"
    },
    {
        "postal_code": "15240",
        "province": "LOPBURI",
        "district": "SRA-BHOD"
    },
    {
        "postal_code": "15250",
        "province": "LOPBURI",
        "district": "KOK-CHAROEN"
    },
    {
        "postal_code": "16000",
        "province": "SINGBURI",
        "district": "MUANG"
    },
    {
        "postal_code": "16110",
        "province": "SINGBURI",
        "district": "IN-TARA-BURI"
    },
    {
        "postal_code": "16120",
        "province": "SINGBURI",
        "district": "PHROM-BURI"
    },
    {
        "postal_code": "16130",
        "province": "SINGBURI",
        "district": "BANGRAJUN"
    },
    {
        "postal_code": "16140",
        "province": "SINGBURI",
        "district": "THA-CHANG"
    },
    {
        "postal_code": "16150",
        "province": "SINGBURI",
        "district": "KAI-BANGRAJU"
    },
    {
        "postal_code": "16160",
        "province": "SINGBURI",
        "district": "PAK BANG"
    },
    {
        "postal_code": "17000",
        "province": "CHAINAT",
        "district": "MUANG"
    },
    {
        "postal_code": "17110",
        "province": "CHAINAT",
        "district": "MANOROM"
    },
    {
        "postal_code": "17120",
        "province": "CHAINAT",
        "district": "WATSINGH"
    },
    {
        "postal_code": "17120",
        "province": "CHAINAT",
        "district": "WATSINGH"
    },
    {
        "postal_code": "17120",
        "province": "CHAINAT",
        "district": "WATSINGH"
    },
    {
        "postal_code": "17130",
        "province": "CHAINAT",
        "district": "HUNKA"
    },
    {
        "postal_code": "17130",
        "province": "CHAINAT",
        "district": "HUNKA"
    },
    {
        "postal_code": "17140",
        "province": "CHAINAT",
        "district": "SUNKABURI"
    },
    {
        "postal_code": "17150",
        "province": "CHAINAT",
        "district": "SUPPAYA"
    },
    {
        "postal_code": "17160",
        "province": "CHAINAT",
        "district": "HUAY-NGU"
    },
    {
        "postal_code": "17170",
        "province": "CHAINAT",
        "district": "HANGNAMSAKOR"
    },
    {
        "postal_code": "18000",
        "province": "SARABURI",
        "district": "MUANG"
    },
    {
        "postal_code": "18110",
        "province": "SARABURI",
        "district": "KHENG-KOI"
    },
    {
        "postal_code": "18120",
        "province": "SARABURI",
        "district": "PRA-PUTTABAT"
    },
    {
        "postal_code": "18130",
        "province": "SARABURI",
        "district": "BANN-MHO"
    },
    {
        "postal_code": "18140",
        "province": "SARABURI",
        "district": "NONG-KAE"
    },
    {
        "postal_code": "18150",
        "province": "SARABURI",
        "district": "WIHARN-DAENG"
    },
    {
        "postal_code": "18160",
        "province": "SARABURI",
        "district": "SAO-HAI"
    },
    {
        "postal_code": "18170",
        "province": "SARABURI",
        "district": "NONG-SAENG"
    },
    {
        "postal_code": "18180",
        "province": "SARABURI",
        "district": "MUAK-LEK"
    },
    {
        "postal_code": "18190",
        "province": "SARABURI",
        "district": "NONG-DONE"
    },
    {
        "postal_code": "18210",
        "province": "SARABURI",
        "district": "DON-PHUT"
    },
    {
        "postal_code": "18220",
        "province": "SARABURI",
        "district": "Wang-Muang"
    },
    {
        "postal_code": "18230",
        "province": "SARABURI",
        "district": "HIN KONG"
    },
    {
        "postal_code": "18240",
        "province": "SARABURI",
        "district": "PU KAE"
    },
    {
        "postal_code": "18250",
        "province": "SARABURI",
        "district": "KOTCHASIT"
    },
    {
        "postal_code": "18260",
        "province": "SARABURI",
        "district": "TAB KWANG"
    },
    {
        "postal_code": "18270",
        "province": "SARABURI",
        "district": "TALAN SUB DI"
    },
    {
        "postal_code": "20000",
        "province": "CHONBURI",
        "district": "MUANG"
    },
    {
        "postal_code": "20110",
        "province": "CHONBURI",
        "district": "SRIRACHA"
    },
    {
        "postal_code": "20120",
        "province": "CHONBURI",
        "district": "SICHANG ISLA"
    },
    {
        "postal_code": "20130",
        "province": "CHONBURI",
        "district": "BANGSAN"
    },
    {
        "postal_code": "20131",
        "province": "CHONBURI",
        "district": "Burapha University"
    },
    {
        "postal_code": "20140",
        "province": "CHONBURI",
        "district": "PANASNIKOM"
    },
    {
        "postal_code": "20150",
        "province": "CHONBURI",
        "district": "BANGLAMUNG"
    },
    {
        "postal_code": "20160",
        "province": "CHONBURI",
        "district": "PANTHONG"
    },
    {
        "postal_code": "20170",
        "province": "CHONBURI",
        "district": "BANNBUNG"
    },
    {
        "postal_code": "20180",
        "province": "CHONBURI",
        "district": "SATTAHEAP"
    },
    {
        "postal_code": "20182",
        "province": "CHONBURI",
        "district": "Sattahip Naval Base"
    },
    {
        "postal_code": "20190",
        "province": "CHONBURI",
        "district": "NONGYAI"
    },
    {
        "postal_code": "20210",
        "province": "CHONBURI",
        "district": "BANGPRA"
    },
    {
        "postal_code": "20220",
        "province": "CHONBURI",
        "district": "HUAKUNJAE"
    },
    {
        "postal_code": "20230",
        "province": "CHONBURI",
        "district": "BAOWIN"
    },
    {
        "postal_code": "20240",
        "province": "CHONBURI",
        "district": "THABOONMEE/K"
    },
    {
        "postal_code": "20250",
        "province": "CHONBURI",
        "district": "T.Na Jomtien"
    },
    {
        "postal_code": "20251",
        "province": "CHONBURI",
        "district": "BANSARAE"
    },
    {
        "postal_code": "20260",
        "province": "CHONBURI",
        "district": "T.Nongprue"
    },
    {
        "postal_code": "20270",
        "province": "CHONBURI",
        "district": "BO-THONG"
    },
    {
        "postal_code": "20280",
        "province": "CHONBURI",
        "district": "NONGKARM"
    },
    {
        "postal_code": "21000",
        "province": "RAYONG",
        "district": "MUANG"
    },
    {
        "postal_code": "21100",
        "province": "RAYONG",
        "district": "KRACHED"
    },
    {
        "postal_code": "21110",
        "province": "RAYONG",
        "district": "KLANG"
    },
    {
        "postal_code": "21120",
        "province": "RAYONG",
        "district": "BANN-KAI"
    },
    {
        "postal_code": "21130",
        "province": "RAYONG",
        "district": "BANN-CHANG"
    },
    {
        "postal_code": "21140",
        "province": "RAYONG",
        "district": "PLUAK-DAENG"
    },
    {
        "postal_code": "21150",
        "province": "RAYONG",
        "district": "MAPTAPHUT"
    },
    {
        "postal_code": "21160",
        "province": "RAYONG",
        "district": "PAE"
    },
    {
        "postal_code": "21170",
        "province": "RAYONG",
        "district": "PAKNAMPRASAE"
    },
    {
        "postal_code": "21180",
        "province": "RAYONG",
        "district": "NIKOMPATTANA"
    },
    {
        "postal_code": "21190",
        "province": "RAYONG",
        "district": "KAM"
    },
    {
        "postal_code": "21210",
        "province": "RAYONG",
        "district": "WANG-JUN"
    },
    {
        "postal_code": "22000",
        "province": "CHANTABURI",
        "district": "MUANG"
    },
    {
        "postal_code": "22110",
        "province": "CHANTABURI",
        "district": "KLUNG"
    },
    {
        "postal_code": "22120",
        "province": "CHANTABURI",
        "district": "THAMAI"
    },
    {
        "postal_code": "22130",
        "province": "CHANTABURI",
        "district": "LAMSINGH"
    },
    {
        "postal_code": "22140",
        "province": "CHANTABURI",
        "district": "PONGNUMRON"
    },
    {
        "postal_code": "22150",
        "province": "CHANTABURI",
        "district": "MAKARM"
    },
    {
        "postal_code": "22160",
        "province": "CHANTABURI",
        "district": "KAENG-HAENGM"
    },
    {
        "postal_code": "22170",
        "province": "CHANTABURI",
        "district": "TUNGBENJA"
    },
    {
        "postal_code": "22180",
        "province": "CHANTABURI",
        "district": "SOI-DAO"
    },
    {
        "postal_code": "22190",
        "province": "CHANTABURI",
        "district": "PIEW"
    },
    {
        "postal_code": "22210",
        "province": "CHANTABURI",
        "district": "KAOKITCHAKOO"
    },
    {
        "postal_code": "23000",
        "province": "TRAD",
        "district": "MUANG"
    },
    {
        "postal_code": "23110",
        "province": "TRAD",
        "district": "KLONGYAI"
    },
    {
        "postal_code": "23120",
        "province": "TRAD",
        "district": "LAM-NGOB/CHA"
    },
    {
        "postal_code": "23130",
        "province": "TRAD",
        "district": "KHO-SA-MING"
    },
    {
        "postal_code": "23140",
        "province": "TRAD",
        "district": "BO-RAI"
    },
    {
        "postal_code": "23150",
        "province": "TRAD",
        "district": "SANTUNG"
    },
    {
        "postal_code": "23160",
        "province": "TRAD",
        "district": "NONGBON"
    },
    {
        "postal_code": "23170",
        "province": "TRAD",
        "district": "Chang-Island"
    },
    {
        "postal_code": "24000",
        "province": "CHACHOENGSAO",
        "district": "MUANG"
    },
    {
        "postal_code": "24110",
        "province": "CHACHOENGSAO",
        "district": "BANGKLA"
    },
    {
        "postal_code": "24120",
        "province": "CHACHOENGSAO",
        "district": "PANUMSARAKAR"
    },
    {
        "postal_code": "24130",
        "province": "CHACHOENGSAO",
        "district": "BANGPRAKONG"
    },
    {
        "postal_code": "24140",
        "province": "CHACHOENGSAO",
        "district": "BANNPHO"
    },
    {
        "postal_code": "24150",
        "province": "CHACHOENGSAO",
        "district": "BANGNUMPREW"
    },
    {
        "postal_code": "24160",
        "province": "CHACHOENGSAO",
        "district": "SANAMCHAIKHE"
    },
    {
        "postal_code": "24170",
        "province": "CHACHOENGSAO",
        "district": "DONCHIMPLEE"
    },
    {
        "postal_code": "24180",
        "province": "CHACHOENGSAO",
        "district": "BANGWUA"
    },
    {
        "postal_code": "24190",
        "province": "CHACHOENGSAO",
        "district": "PLENGYAO"
    },
    {
        "postal_code": "25000",
        "province": "PRACHINBURI",
        "district": "MUANG"
    },
    {
        "postal_code": "25110",
        "province": "PRACHINBURI",
        "district": "KABILBURI"
    },
    {
        "postal_code": "25130",
        "province": "PRACHINBURI",
        "district": "PRACHANKARM"
    },
    {
        "postal_code": "25140",
        "province": "PRACHINBURI",
        "district": "SRIMAHAPHO"
    },
    {
        "postal_code": "25150",
        "province": "PRACHINBURI",
        "district": "BANN-SANG"
    },
    {
        "postal_code": "25190",
        "province": "PRACHINBURI",
        "district": "KOK-PEP"
    },
    {
        "postal_code": "25220",
        "province": "PRACHINBURI",
        "district": "NA-DEE"
    },
    {
        "postal_code": "25230",
        "province": "PRACHINBURI",
        "district": "BAN PHRA"
    },
    {
        "postal_code": "25240",
        "province": "PRACHINBURI",
        "district": "KABIN KAO"
    },
    {
        "postal_code": "26000",
        "province": "NAKORN NAYOK",
        "district": "MUANG"
    },
    {
        "postal_code": "26110",
        "province": "NAKORN NAYOK",
        "district": "BANN-NA"
    },
    {
        "postal_code": "26120",
        "province": "NAKORN NAYOK",
        "district": "ONG-KARAK"
    },
    {
        "postal_code": "26130",
        "province": "NAKORN NAYOK",
        "district": "PARKPLEE"
    },
    {
        "postal_code": "27000",
        "province": "SRAKAEW",
        "district": "MUANG/KAO-CH"
    },
    {
        "postal_code": "27120",
        "province": "SRAKAEW",
        "district": "ARRUNYA-PRAT"
    },
    {
        "postal_code": "27160",
        "province": "SRAKAEW",
        "district": "WATTANA-NAKO"
    },
    {
        "postal_code": "27180",
        "province": "SRAKAEW",
        "district": "TA-PAYA"
    },
    {
        "postal_code": "27210",
        "province": "SRAKAEW",
        "district": "WANG-NAMYEN"
    },
    {
        "postal_code": "27250",
        "province": "SRAKAEW",
        "district": "WANG-SOMBOON"
    },
    {
        "postal_code": "27260",
        "province": "SRAKAEW",
        "district": "KLONG-HARD"
    },
    {
        "postal_code": "30000",
        "province": "NAKORN RACHASIMA",
        "district": "MUANG"
    },
    {
        "postal_code": "30110",
        "province": "NAKORN RACHASIMA",
        "district": "PIMAI"
    },
    {
        "postal_code": "30120",
        "province": "NAKORN RACHASIMA",
        "district": "BOU-YAI"
    },
    {
        "postal_code": "30130",
        "province": "NAKORN RACHASIMA",
        "district": "PARKCHONG"
    },
    {
        "postal_code": "30140",
        "province": "NAKORN RACHASIMA",
        "district": "SIKEW"
    },
    {
        "postal_code": "30150",
        "province": "NAKORN RACHASIMA",
        "district": "PUKTHONGCHAI"
    },
    {
        "postal_code": "30160",
        "province": "NAKORN RACHASIMA",
        "district": "NONE-SUNG"
    },
    {
        "postal_code": "30170",
        "province": "NAKORN RACHASIMA",
        "district": "SUNG-NERN"
    },
    {
        "postal_code": "30180",
        "province": "NAKORN RACHASIMA",
        "district": "PRATAI"
    },
    {
        "postal_code": "30190",
        "province": "NAKORN RACHASIMA",
        "district": "CHOKCHAI"
    },
    {
        "postal_code": "30210",
        "province": "NAKORN RACHASIMA",
        "district": "DAN-KHUNTOD"
    },
    {
        "postal_code": "30220",
        "province": "NAKORN RACHASIMA",
        "district": "NONE-THAI"
    },
    {
        "postal_code": "30230",
        "province": "NAKORN RACHASIMA",
        "district": "CHAKKARAD"
    },
    {
        "postal_code": "30240",
        "province": "NAKORN RACHASIMA",
        "district": "HUAY-THALENG"
    },
    {
        "postal_code": "30250",
        "province": "NAKORN RACHASIMA",
        "district": "KORNBURI"
    },
    {
        "postal_code": "30260",
        "province": "NAKORN RACHASIMA",
        "district": "KHONG"
    },
    {
        "postal_code": "30270",
        "province": "NAKORN RACHASIMA",
        "district": "CHUMPHUNG"
    },
    {
        "postal_code": "30280",
        "province": "NAKORN RACHASIMA",
        "district": "KHAM-TALESOR"
    },
    {
        "postal_code": "30290",
        "province": "NAKORN RACHASIMA",
        "district": "KHAM-SAKAESA"
    },
    {
        "postal_code": "31000",
        "province": "BURIRUM",
        "district": "MUANG/HUAYRA"
    },
    {
        "postal_code": "32000",
        "province": "SURIN",
        "district": "MUANG"
    },
    {
        "postal_code": "30330",
        "province": "NAKORN RACHASIMA",
        "district": "SENG-SANG"
    },
    {
        "postal_code": "33000",
        "province": "SISAKET",
        "district": "MUANG"
    },
    {
        "postal_code": "30350",
        "province": "NAKORN RACHASIMA",
        "district": "BANNLEUM"
    },
    {
        "postal_code": "30360",
        "province": "NAKORN RACHASIMA",
        "district": "NONE-DAENG"
    },
    {
        "postal_code": "30370",
        "province": "NAKORN RACHASIMA",
        "district": "WANGNUMKHEW"
    },
    {
        "postal_code": "36000",
        "province": "CHAIYAPHUM",
        "district": "MUANG"
    },
    {
        "postal_code": "30410",
        "province": "NAKORN RACHASIMA",
        "district": "NONG-BOONNAK"
    },
    {
        "postal_code": "37000",
        "province": "AMNART CHAROEN",
        "district": "MUANG"
    },
    {
        "postal_code": "30430",
        "province": "NAKORN RACHASIMA",
        "district": "SEEDA"
    },
    {
        "postal_code": "30440",
        "province": "NAKORN RACHASIMA",
        "district": "KAENG-SANAMN"
    },
    {
        "postal_code": "37000",
        "province": "AMNART CHAROEN",
        "district": "MUANG"
    },
    {
        "postal_code": "39000",
        "province": "NONG BUA LUMPOO",
        "district": "MUANG"
    },
    {
        "postal_code": "40000",
        "province": "KHON KAEN",
        "district": "MUANG"
    },
    {
        "postal_code": "41000",
        "province": "UDONTHANI",
        "district": "MUANG"
    },
    {
        "postal_code": "45000",
        "province": "ROI-ED",
        "district": "MUANG/JUNG-H"
    },
    {
        "postal_code": "47000",
        "province": "SAKOL NAKORN",
        "district": "MUANG"
    },
    {
        "postal_code": "47220",
        "province": "SAKOL NAKORN",
        "district": "DONG MAFAI"
    },
    {
        "postal_code": "48000",
        "province": "NAKORN PHANOM",
        "district": "MUANG"
    },
    {
        "postal_code": "31110",
        "province": "BURIRUM",
        "district": "CHAMNI/NANGR"
    },
    {
        "postal_code": "31120",
        "province": "BURIRUM",
        "district": "BANN-MAICHAI"
    },
    {
        "postal_code": "31130",
        "province": "BURIRUM",
        "district": "LUMPLYMAS"
    },
    {
        "postal_code": "31140",
        "province": "BURIRUM",
        "district": "PRAKONCHAI"
    },
    {
        "postal_code": "31150",
        "province": "BURIRUM",
        "district": "SATUK"
    },
    {
        "postal_code": "31160",
        "province": "BURIRUM",
        "district": "KRASUNG"
    },
    {
        "postal_code": "31170",
        "province": "BURIRUM",
        "district": "LAHARNSAI"
    },
    {
        "postal_code": "31180",
        "province": "BURIRUM",
        "district": "BANN-KRUD"
    },
    {
        "postal_code": "31190",
        "province": "BURIRUM",
        "district": "KHUMUANG"
    },
    {
        "postal_code": "31210",
        "province": "BURIRUM",
        "district": "NONGKEE"
    },
    {
        "postal_code": "31220",
        "province": "BURIRUM",
        "district": "PAKUM"
    },
    {
        "postal_code": "31230",
        "province": "BURIRUM",
        "district": "NA-PHO"
    },
    {
        "postal_code": "31240",
        "province": "BURIRUM",
        "district": "NONGHONG"
    },
    {
        "postal_code": "31250",
        "province": "BURIRUM",
        "district": "PLUBPLA CHAI"
    },
    {
        "postal_code": "31260",
        "province": "BURIRUM",
        "district": "NONDINDANG"
    },
    {
        "postal_code": "32110",
        "province": "SURIN",
        "district": "SI-KHARA-PHU"
    },
    {
        "postal_code": "32120",
        "province": "SURIN",
        "district": "THA-THUM"
    },
    {
        "postal_code": "32130",
        "province": "SURIN",
        "district": "RATTANA-BURI"
    },
    {
        "postal_code": "32140",
        "province": "SURIN",
        "district": "PRA-SART"
    },
    {
        "postal_code": "32150",
        "province": "SURIN",
        "district": "SUNG-KHA"
    },
    {
        "postal_code": "32160",
        "province": "SURIN",
        "district": "SA-NUM"
    },
    {
        "postal_code": "32170",
        "province": "SURIN",
        "district": "SUMRONG-TARP"
    },
    {
        "postal_code": "32180",
        "province": "SURIN",
        "district": "JOM-PHRA"
    },
    {
        "postal_code": "32190",
        "province": "SURIN",
        "district": "CHUMPOL-BURI"
    },
    {
        "postal_code": "32210",
        "province": "SURIN",
        "district": "KARB-CHURNG"
    },
    {
        "postal_code": "32220",
        "province": "SURIN",
        "district": "LUM-DUAN"
    },
    {
        "postal_code": "32230",
        "province": "SURIN",
        "district": "BUA-CHED"
    },
    {
        "postal_code": "33110",
        "province": "SISAKET",
        "district": "BENJA-LUK/KU"
    },
    {
        "postal_code": "33110",
        "province": "SISAKET",
        "district": "BENJA-LUK/KU"
    },
    {
        "postal_code": "33120",
        "province": "SISAKET",
        "district": "PHOSUWAN/MUA"
    },
    {
        "postal_code": "33120",
        "province": "SISAKET",
        "district": "PHOSUWAN/MUA"
    },
    {
        "postal_code": "33120",
        "province": "SISAKET",
        "district": "PHOSUWAN/MUA"
    },
    {
        "postal_code": "33130",
        "province": "SISAKET",
        "district": "KUNTRA-ROM/N"
    },
    {
        "postal_code": "33130",
        "province": "SISAKET",
        "district": "KUNTRA-ROM/N"
    },
    {
        "postal_code": "33140",
        "province": "SISAKET",
        "district": "CHU-KHUN/PHU"
    },
    {
        "postal_code": "33140",
        "province": "SISAKET",
        "district": "CHU-KHUN/PHU"
    },
    {
        "postal_code": "33150",
        "province": "SISAKET",
        "district": "KHUN-HARN"
    },
    {
        "postal_code": "33160",
        "province": "SISAKET",
        "district": "RASI-SLAI"
    },
    {
        "postal_code": "33160",
        "province": "SISAKET",
        "district": "RASI-SLAI"
    },
    {
        "postal_code": "33170",
        "province": "SISAKET",
        "district": "PRANK-PHU"
    },
    {
        "postal_code": "33180",
        "province": "SISAKET",
        "district": "PRI-BUNG"
    },
    {
        "postal_code": "33190",
        "province": "SISAKET",
        "district": "YANG-CHUMNOI"
    },
    {
        "postal_code": "33210",
        "province": "SISAKET",
        "district": "HUAY-THAP-TH"
    },
    {
        "postal_code": "33220",
        "province": "SISAKET",
        "district": "BUNG-BOON"
    },
    {
        "postal_code": "33230",
        "province": "SISAKET",
        "district": "PAYUH"
    },
    {
        "postal_code": "33240",
        "province": "SISAKET",
        "district": "SRI-RATTANA"
    },
    {
        "postal_code": "33250",
        "province": "SISAKET",
        "district": "NONE-KHUN"
    },
    {
        "postal_code": "33270",
        "province": "SISAKET",
        "district": "WANG-HIN"
    },
    {
        "postal_code": "34000",
        "province": "UBON RACHATHANI",
        "district": "MUANG/HLAO-S"
    },
    {
        "postal_code": "34110",
        "province": "UBON RACHATHANI",
        "district": "PIBOON-MUNGS"
    },
    {
        "postal_code": "34130",
        "province": "UBON RACHATHANI",
        "district": "TRAKARN-PHUC"
    },
    {
        "postal_code": "34140",
        "province": "UBON RACHATHANI",
        "district": "MUANG-SAM-SI"
    },
    {
        "postal_code": "34150",
        "province": "UBON RACHATHANI",
        "district": "KHUNG-NAI"
    },
    {
        "postal_code": "34160",
        "province": "UBON RACHATHANI",
        "district": "DEJ-UDOM/TUN"
    },
    {
        "postal_code": "34170",
        "province": "UBON RACHATHANI",
        "district": "KHEM-MARAT"
    },
    {
        "postal_code": "34190",
        "province": "UBON RACHATHANI",
        "district": "VARIN-CHUM-R"
    },
    {
        "postal_code": "34220",
        "province": "UBON RACHATHANI",
        "district": "KHONG-JEAM"
    },
    {
        "postal_code": "34230",
        "province": "UBON RACHATHANI",
        "district": "BOON-TARIK"
    },
    {
        "postal_code": "34250",
        "province": "UBON RACHATHANI",
        "district": "SRI-MUANGMAI"
    },
    {
        "postal_code": "34260",
        "province": "UBON RACHATHANI",
        "district": "NAM-YUEN"
    },
    {
        "postal_code": "34270",
        "province": "UBON RACHATHANI",
        "district": "KUD-KAOW-PUN"
    },
    {
        "postal_code": "34280",
        "province": "UBON RACHATHANI",
        "district": "NA-JA-HLUAY"
    },
    {
        "postal_code": "34330",
        "province": "UBON RACHATHANI",
        "district": "TAL-SUM"
    },
    {
        "postal_code": "34340",
        "province": "UBON RACHATHANI",
        "district": "PHO-TSAI"
    },
    {
        "postal_code": "34350",
        "province": "UBON RACHATHANI",
        "district": "SIRINTORN"
    },
    {
        "postal_code": "34360",
        "province": "UBON RACHATHANI",
        "district": "SUM-RONG"
    },
    {
        "postal_code": "36110",
        "province": "CHAIYAPHUM",
        "district": "PHU-KHEW"
    },
    {
        "postal_code": "36120",
        "province": "CHAIYAPHUM",
        "district": "KASEDSOMBOON"
    },
    {
        "postal_code": "36130",
        "province": "CHAIYAPHUM",
        "district": "CHATURUS/NUE"
    },
    {
        "postal_code": "36140",
        "province": "CHAIYAPHUM",
        "district": "KONSAWAN"
    },
    {
        "postal_code": "36150",
        "province": "CHAIYAPHUM",
        "district": "KHANG-KRAW"
    },
    {
        "postal_code": "36160",
        "province": "CHAIYAPHUM",
        "district": "BUMNETNARUNG"
    },
    {
        "postal_code": "36170",
        "province": "CHAIYAPHUM",
        "district": "BANNKWAR"
    },
    {
        "postal_code": "36180",
        "province": "CHAIYAPHUM",
        "district": "KONSARN"
    },
    {
        "postal_code": "36190",
        "province": "CHAIYAPHUM",
        "district": "BANNTHEAN"
    },
    {
        "postal_code": "36210",
        "province": "CHAIYAPHUM",
        "district": "NONG-BUADEAN"
    },
    {
        "postal_code": "36230",
        "province": "CHAIYAPHUM",
        "district": "THEPSATHID"
    },
    {
        "postal_code": "36250",
        "province": "CHAIYAPHUM",
        "district": "NONG-BUARAHE"
    },
    {
        "postal_code": "36260",
        "province": "CHAIYAPHUM",
        "district": "PHUKDEECHUMP"
    },
    {
        "postal_code": "37110",
        "province": "AMNART CHAROEN",
        "district": "PATHUM-RACHA"
    },
    {
        "postal_code": "37180",
        "province": "AMNART CHAROEN",
        "district": "PANA"
    },
    {
        "postal_code": "37210",
        "province": "AMNART CHAROEN",
        "district": "CHANU-MAN"
    },
    {
        "postal_code": "37240",
        "province": "AMNART CHAROEN",
        "district": "HUA-TAPARN"
    },
    {
        "postal_code": "37290",
        "province": "AMNART CHAROEN",
        "district": "SANANG-KANIK"
    },
    {
        "postal_code": "39140",
        "province": "NONG BUA LUMPOO",
        "district": "NONE-SUNG"
    },
    {
        "postal_code": "39170",
        "province": "NONG BUA LUMPOO",
        "district": "NA-KLANG/NA-"
    },
    {
        "postal_code": "39170",
        "province": "NONG BUA LUMPOO",
        "district": "NA-KLANG/NA-"
    },
    {
        "postal_code": "39180",
        "province": "NONG BUA LUMPOO",
        "district": "SRI-BOONRUEN"
    },
    {
        "postal_code": "39270",
        "province": "NONG BUA LUMPOO",
        "district": "SUWAN-KUHA"
    },
    {
        "postal_code": "40110",
        "province": "KHON KAEN",
        "district": "BANN-PAI/WAN"
    },
    {
        "postal_code": "40120",
        "province": "KHON KAEN",
        "district": "PHOL"
    },
    {
        "postal_code": "40130",
        "province": "KHON KAEN",
        "district": "CHUMPAE"
    },
    {
        "postal_code": "40140",
        "province": "KHON KAEN",
        "district": "NUM-PHONG"
    },
    {
        "postal_code": "40150",
        "province": "KHON KAEN",
        "district": "PHUWENG/NONG"
    },
    {
        "postal_code": "40160",
        "province": "KHON KAEN",
        "district": "KHOKPHOCHAI/"
    },
    {
        "postal_code": "40170",
        "province": "KHON KAEN",
        "district": "KRANUAN/CHOM"
    },
    {
        "postal_code": "40180",
        "province": "KHON KAEN",
        "district": "CHONNABOT"
    },
    {
        "postal_code": "40190",
        "province": "KHON KAEN",
        "district": "NONGSONGHONG"
    },
    {
        "postal_code": "40210",
        "province": "KHON KAEN",
        "district": "NONGRUE"
    },
    {
        "postal_code": "40220",
        "province": "KHON KAEN",
        "district": "SICHOMPHU"
    },
    {
        "postal_code": "40230",
        "province": "KHON KAEN",
        "district": "WANGNOI"
    },
    {
        "postal_code": "40250",
        "province": "KHON KAEN",
        "district": "UBONRAT"
    },
    {
        "postal_code": "40270",
        "province": "KHON KAEN",
        "district": "BANN-PHANG"
    },
    {
        "postal_code": "40280",
        "province": "KHON KAEN",
        "district": "KAOSUANKWANG"
    },
    {
        "postal_code": "40320",
        "province": "KHON KAEN",
        "district": "PRA-YEUN"
    },
    {
        "postal_code": "40330",
        "province": "KHON KAEN",
        "district": "WANGYAI"
    },
    {
        "postal_code": "40340",
        "province": "KHON KAEN",
        "district": "PUE-NOI"
    },
    {
        "postal_code": "40350",
        "province": "KHON KAEN",
        "district": "PHUPHAMAN"
    },
    {
        "postal_code": "41110",
        "province": "UDONTHANI",
        "district": "KUM-PAVAPEE"
    },
    {
        "postal_code": "41130",
        "province": "UDONTHANI",
        "district": "KHU-KAEW/PHI"
    },
    {
        "postal_code": "41150",
        "province": "UDONTHANI",
        "district": "PEN"
    },
    {
        "postal_code": "41160",
        "province": "UDONTHANI",
        "district": "BANN-PHUE"
    },
    {
        "postal_code": "41190",
        "province": "UDONTHANI",
        "district": "BANN-DUNG"
    },
    {
        "postal_code": "41210",
        "province": "UDONTHANI",
        "district": "NAM-SOM"
    },
    {
        "postal_code": "41220",
        "province": "UDONTHANI",
        "district": "NHONG-WAO-SA"
    },
    {
        "postal_code": "41230",
        "province": "UDONTHANI",
        "district": "SRI-THAT"
    },
    {
        "postal_code": "41240",
        "province": "UDONTHANI",
        "district": "NONE-SA-ARD"
    },
    {
        "postal_code": "41250",
        "province": "UDONTHANI",
        "district": "KUD-JUB"
    },
    {
        "postal_code": "41260",
        "province": "UDONTHANI",
        "district": "SRANG-KOM"
    },
    {
        "postal_code": "41280",
        "province": "UDONTHANI",
        "district": "WANG-SAM-HMO"
    },
    {
        "postal_code": "41290",
        "province": "UDONTHANI",
        "district": "CHAI-WAN"
    },
    {
        "postal_code": "41310",
        "province": "UDONTHANI",
        "district": "THUNG-PHON"
    },
    {
        "postal_code": "41340",
        "province": "UDONTHANI",
        "district": "NONGSANG"
    },
    {
        "postal_code": "41380",
        "province": "UDONTHANI",
        "district": "NA-YUNG"
    },
    {
        "postal_code": "45110",
        "province": "ROI-ED",
        "district": "PHON-THONG"
    },
    {
        "postal_code": "45120",
        "province": "ROI-ED",
        "district": "SAE-LA-PHUM"
    },
    {
        "postal_code": "45130",
        "province": "ROI-ED",
        "district": "SUWANNA-PHUM"
    },
    {
        "postal_code": "45140",
        "province": "ROI-ED",
        "district": "PANUM-PRAI"
    },
    {
        "postal_code": "45150",
        "province": "ROI-ED",
        "district": "KASED-WISAI"
    },
    {
        "postal_code": "45160",
        "province": "ROI-ED",
        "district": "ARJ-SAMART"
    },
    {
        "postal_code": "45170",
        "province": "ROI-ED",
        "district": "TWAT-BURI/CH"
    },
    {
        "postal_code": "45180",
        "province": "ROI-ED",
        "district": "JATURAPUK-PI"
    },
    {
        "postal_code": "45190",
        "province": "ROI-ED",
        "district": "PATHUM-RAT"
    },
    {
        "postal_code": "45210",
        "province": "ROI-ED",
        "district": "NONG-POK"
    },
    {
        "postal_code": "45220",
        "province": "ROI-ED",
        "district": "MUANG-SUONG"
    },
    {
        "postal_code": "45230",
        "province": "ROI-ED",
        "district": "PHO-CHAI"
    },
    {
        "postal_code": "45240",
        "province": "ROI-ED",
        "district": "PHON-SAI"
    },
    {
        "postal_code": "45250",
        "province": "ROI-ED",
        "district": "MAE-YA-WADEE"
    },
    {
        "postal_code": "47110",
        "province": "SAKOL NAKORN",
        "district": "SWANG-DANDIN"
    },
    {
        "postal_code": "47120",
        "province": "SAKOL NAKORN",
        "district": "WANON-NIVAS"
    },
    {
        "postal_code": "47130",
        "province": "SAKOL NAKORN",
        "district": "PANNA-NIKOM"
    },
    {
        "postal_code": "47140",
        "province": "SAKOL NAKORN",
        "district": "BANN-MUANG"
    },
    {
        "postal_code": "47150",
        "province": "SAKOL NAKORN",
        "district": "WARICHA-PHUM"
    },
    {
        "postal_code": "47160",
        "province": "SAKOL NAKORN",
        "district": "PANG-KONE"
    },
    {
        "postal_code": "47170",
        "province": "SAKOL NAKORN",
        "district": "AR-KARD-AM-N"
    },
    {
        "postal_code": "47180",
        "province": "SAKOL NAKORN",
        "district": "KUD-BAK/PHU-"
    },
    {
        "postal_code": "47190",
        "province": "SAKOL NAKORN",
        "district": "SONG-DAO"
    },
    {
        "postal_code": "47210",
        "province": "SAKOL NAKORN",
        "district": "KUSU-MAL"
    },
    {
        "postal_code": "47230",
        "province": "SAKOL NAKORN",
        "district": "PONE NAKAEW"
    },
    {
        "postal_code": "47250",
        "province": "SAKOL NAKORN",
        "district": "KOM-TAKLA"
    },
    {
        "postal_code": "47260",
        "province": "SAKOL NAKORN",
        "district": "TAO-NGOY"
    },
    {
        "postal_code": "47270",
        "province": "SAKOL NAKORN",
        "district": "NIKOM-NUM-OU"
    },
    {
        "postal_code": "47280",
        "province": "SAKOL NAKORN",
        "district": "KOK-SRISUPHA"
    },
    {
        "postal_code": "47290",
        "province": "SAKOL NAKORN",
        "district": "CHAROEN-SIL"
    },
    {
        "postal_code": "48110",
        "province": "NAKORN PHANOM",
        "district": "THAT-PHANOM"
    },
    {
        "postal_code": "48120",
        "province": "NAKORN PHANOM",
        "district": "TA-U-TEN"
    },
    {
        "postal_code": "48130",
        "province": "NAKORN PHANOM",
        "district": "NA-KAE"
    },
    {
        "postal_code": "48130",
        "province": "NAKORN PHANOM",
        "district": "NA-KAE"
    },
    {
        "postal_code": "48140",
        "province": "NAKORN PHANOM",
        "district": "BANN-PHANG"
    },
    {
        "postal_code": "48140",
        "province": "NAKORN PHANOM",
        "district": "BANN-PHANG"
    },
    {
        "postal_code": "48150",
        "province": "NAKORN PHANOM",
        "district": "SRI-SONGKARM"
    },
    {
        "postal_code": "48160",
        "province": "NAKORN PHANOM",
        "district": "PLA-PARK"
    },
    {
        "postal_code": "48170",
        "province": "NAKORN PHANOM",
        "district": "RANU-NAKORN"
    },
    {
        "postal_code": "48180",
        "province": "NAKORN PHANOM",
        "district": "NA-WHA"
    },
    {
        "postal_code": "48190",
        "province": "NAKORN PHANOM",
        "district": "PHON-SAWAN"
    },
    {
        "postal_code": "30310",
        "province": "NAKORN RACHASIMA",
        "district": "T. KHOKSUNG,"
    },
    {
        "postal_code": "30320",
        "province": "NAKORN RACHASIMA",
        "district": "KLANGDONG"
    },
    {
        "postal_code": "30340",
        "province": "NAKORN RACHASIMA",
        "district": "T.LADBUAKAO,"
    },
    {
        "postal_code": "30380",
        "province": "NAKORN RACHASIMA",
        "district": "KUDJIK"
    },
    {
        "postal_code": "30420",
        "province": "NAKORN RACHASIMA",
        "district": "TALADKAE"
    },
    {
        "postal_code": "34310",
        "province": "UBON RACHATHANI",
        "district": "HUAY KAYUNG"
    },
    {
        "postal_code": "34320",
        "province": "UBON RACHATHANI",
        "district": "BANKOK"
    },
    {
        "postal_code": "36220",
        "province": "CHAIYAPHUM",
        "district": "NONGBUAKOK"
    },
    {
        "postal_code": "36240",
        "province": "CHAIYAPHUM",
        "district": "T.BANKAI,NON"
    },
    {
        "postal_code": "40002",
        "province": "KHON KAEN",
        "district": "KHONKAEN UNI"
    },
    {
        "postal_code": "40240",
        "province": "KHON KAEN",
        "district": "DONMONG"
    },
    {
        "postal_code": "40260",
        "province": "KHON KAEN",
        "district": "THAPRAKOENKA"
    },
    {
        "postal_code": "40290",
        "province": "KHON KAEN",
        "district": "NONHAN"
    },
    {
        "postal_code": "40290",
        "province": "KHON KAEN",
        "district": "NONHAN"
    },
    {
        "postal_code": "40310",
        "province": "KHON KAEN",
        "district": "NAMPONGKAO"
    },
    {
        "postal_code": "41320",
        "province": "UDONTHANI",
        "district": "BANCHIANG"
    },
    {
        "postal_code": "41330",
        "province": "UDONTHANI",
        "district": "KAIRAMSOON"
    },
    {
        "postal_code": "41360",
        "province": "UDONTHANI",
        "district": "MARK YA"
    },
    {
        "postal_code": "41370",
        "province": "UDONTHANI",
        "district": "PHAN DON"
    },
    {
        "postal_code": "45260",
        "province": "ROI-ED",
        "district": "SRISOMDEJ"
    },
    {
        "postal_code": "45280",
        "province": "ROI-ED",
        "district": "SOK CHUEK"
    },
    {
        "postal_code": "47240",
        "province": "SAKOL NAKORN",
        "district": "DON KHUENG"
    },
    {
        "postal_code": "50000",
        "province": "CHIANGMAI",
        "district": "MUANG"
    },
    {
        "postal_code": "50100",
        "province": "CHIANGMAI",
        "district": "T. CHANGKLAR"
    },
    {
        "postal_code": "50110",
        "province": "CHIANGMAI",
        "district": "PHANG"
    },
    {
        "postal_code": "50120",
        "province": "CHIANGMAI",
        "district": "SUNPATONG"
    },
    {
        "postal_code": "50130",
        "province": "CHIANGMAI",
        "district": "MAE-ON/SUNKU"
    },
    {
        "postal_code": "50140",
        "province": "CHIANGMAI",
        "district": "SARAPHEE"
    },
    {
        "postal_code": "50150",
        "province": "CHIANGMAI",
        "district": "MAE-TANG"
    },
    {
        "postal_code": "50160",
        "province": "CHIANGMAI",
        "district": "CHOMTHONG/DO"
    },
    {
        "postal_code": "50170",
        "province": "CHIANGMAI",
        "district": "CHIANGDAO"
    },
    {
        "postal_code": "50180",
        "province": "CHIANGMAI",
        "district": "MAE-RIM"
    },
    {
        "postal_code": "50190",
        "province": "CHIANGMAI",
        "district": "PHRAW"
    },
    {
        "postal_code": "50200",
        "province": "CHIANGMAI",
        "district": "T.PRASING/T."
    },
    {
        "postal_code": "50202",
        "province": "CHIANGMAI",
        "district": "CHIANGMAI UN"
    },
    {
        "postal_code": "50210",
        "province": "CHIANGMAI",
        "district": "SUNSAI"
    },
    {
        "postal_code": "50220",
        "province": "CHIANGMAI",
        "district": "DOI-SAKED"
    },
    {
        "postal_code": "50230",
        "province": "CHIANGMAI",
        "district": "HANG-DOUNG"
    },
    {
        "postal_code": "50240",
        "province": "CHIANGMAI",
        "district": "HOD"
    },
    {
        "postal_code": "50250",
        "province": "CHIANGMAI",
        "district": "SA-MEUNG"
    },
    {
        "postal_code": "50260",
        "province": "CHIANGMAI",
        "district": "DOI-TAO"
    },
    {
        "postal_code": "50270",
        "province": "CHIANGMAI",
        "district": "MAE-CHAM/KAN"
    },
    {
        "postal_code": "50280",
        "province": "CHIANGMAI",
        "district": "MAE-AI"
    },
    {
        "postal_code": "50290",
        "province": "CHIANGMAI",
        "district": "MAE-JO"
    },
    {
        "postal_code": "50300",
        "province": "CHIANGMAI",
        "district": "T.CHANGMOI/T"
    },
    {
        "postal_code": "50320",
        "province": "CHIANGMAI",
        "district": "CHAIPRAKARN"
    },
    {
        "postal_code": "50330",
        "province": "CHIANGMAI",
        "district": "SANPAYANG"
    },
    {
        "postal_code": "50340",
        "province": "CHIANGMAI",
        "district": "NONGTONG"
    },
    {
        "postal_code": "50350",
        "province": "CHIANGMAI",
        "district": "WIENG HANG"
    },
    {
        "postal_code": "50360",
        "province": "CHIANGMAI",
        "district": "MAE-WANG"
    },
    {
        "postal_code": "52000",
        "province": "LAMPANG",
        "district": "MUANG"
    },
    {
        "postal_code": "52100",
        "province": "LAMPANG",
        "district": "SOB TUI"
    },
    {
        "postal_code": "52110",
        "province": "LAMPANG",
        "district": "NGAW"
    },
    {
        "postal_code": "52120",
        "province": "LAMPANG",
        "district": "JAE-HOM"
    },
    {
        "postal_code": "52130",
        "province": "LAMPANG",
        "district": "KHO-KA"
    },
    {
        "postal_code": "52140",
        "province": "LAMPANG",
        "district": "WANG-NUE"
    },
    {
        "postal_code": "52150",
        "province": "LAMPANG",
        "district": "MAE-THA"
    },
    {
        "postal_code": "52160",
        "province": "LAMPANG",
        "district": "THERN"
    },
    {
        "postal_code": "52170",
        "province": "LAMPANG",
        "district": "SUB-PRAB"
    },
    {
        "postal_code": "52180",
        "province": "LAMPANG",
        "district": "MAE-PRICK"
    },
    {
        "postal_code": "52190",
        "province": "LAMPANG",
        "district": "HANG-CHAT"
    },
    {
        "postal_code": "52210",
        "province": "LAMPANG",
        "district": "SERM-NGAM"
    },
    {
        "postal_code": "52220",
        "province": "LAMPANG",
        "district": "MAE-MHOK"
    },
    {
        "postal_code": "52230",
        "province": "LAMPANG",
        "district": "MAE-WAH"
    },
    {
        "postal_code": "52240",
        "province": "LAMPANG",
        "district": "MUANG-PAN"
    },
    {
        "postal_code": "53000",
        "province": "UTTARADIT",
        "district": "MUANG"
    },
    {
        "postal_code": "53110",
        "province": "UTTARADIT",
        "district": "NAM-PARD"
    },
    {
        "postal_code": "53120",
        "province": "UTTARADIT",
        "district": "PI-CHAI"
    },
    {
        "postal_code": "53130",
        "province": "UTTARADIT",
        "district": "LAB-LAE"
    },
    {
        "postal_code": "53140",
        "province": "UTTARADIT",
        "district": "TRON"
    },
    {
        "postal_code": "53150",
        "province": "UTTARADIT",
        "district": "THA-PLA"
    },
    {
        "postal_code": "53160",
        "province": "UTTARADIT",
        "district": "FARK-THA"
    },
    {
        "postal_code": "53180",
        "province": "UTTARADIT",
        "district": "BANN-KOKE"
    },
    {
        "postal_code": "53230",
        "province": "UTTARADIT",
        "district": "THONG-SAEN-K"
    },
    {
        "postal_code": "57000",
        "province": "CHIANGRAI",
        "district": "MUANG"
    },
    {
        "postal_code": "57100",
        "province": "CHIANGRAI",
        "district": "BAN-KOO"
    },
    {
        "postal_code": "57110",
        "province": "CHIANGRAI",
        "district": "MAE-CHAN/MAE"
    },
    {
        "postal_code": "57120",
        "province": "CHIANGRAI",
        "district": "PHARN"
    },
    {
        "postal_code": "57130",
        "province": "CHIANGRAI",
        "district": "MAE-SAI"
    },
    {
        "postal_code": "57140",
        "province": "CHIANGRAI",
        "district": "CHIANGKHONG/"
    },
    {
        "postal_code": "57150",
        "province": "CHIANGRAI",
        "district": "CHIANGSEAN"
    },
    {
        "postal_code": "57160",
        "province": "CHIANGRAI",
        "district": "THENG"
    },
    {
        "postal_code": "57170",
        "province": "CHIANGRAI",
        "district": "WHENG-PAPAO"
    },
    {
        "postal_code": "57180",
        "province": "CHIANGRAI",
        "district": "MAE-SARUAY"
    },
    {
        "postal_code": "57190",
        "province": "CHIANGRAI",
        "district": "PA-DAD"
    },
    {
        "postal_code": "57210",
        "province": "CHIANGRAI",
        "district": "WHENG-CHAI"
    },
    {
        "postal_code": "57220",
        "province": "CHIANGRAI",
        "district": "HUAYKRAI"
    },
    {
        "postal_code": "57230",
        "province": "CHIANGRAI",
        "district": "PLONG"
    },
    {
        "postal_code": "57240",
        "province": "CHIANGRAI",
        "district": "T.TOEDTAI/MA"
    },
    {
        "postal_code": "57250",
        "province": "CHIANGRAI",
        "district": "MAELAO"
    },
    {
        "postal_code": "57260",
        "province": "CHIANGRAI",
        "district": "MAEJAEDEE"
    },
    {
        "postal_code": "57270",
        "province": "CHIANGRAI",
        "district": "CHANJAWA"
    },
    {
        "postal_code": "57280",
        "province": "CHIANGRAI",
        "district": "MAEYEN"
    },
    {
        "postal_code": "57290",
        "province": "CHIANGRAI",
        "district": "PAYA-MENGRAI"
    },
    {
        "postal_code": "57340",
        "province": "CHIANGRAI",
        "district": "KHUNTAN"
    },
    {
        "postal_code": "60000",
        "province": "NAKORN SAWAN",
        "district": "MUANG"
    },
    {
        "postal_code": "60110",
        "province": "NAKORN SAWAN",
        "district": "NONGBUA"
    },
    {
        "postal_code": "60120",
        "province": "NAKORN SAWAN",
        "district": "CHUMSENG"
    },
    {
        "postal_code": "60130",
        "province": "NAKORN SAWAN",
        "district": "PAYUHAKIRI"
    },
    {
        "postal_code": "60140",
        "province": "NAKORN SAWAN",
        "district": "TAKLEE"
    },
    {
        "postal_code": "60150",
        "province": "NAKORN SAWAN",
        "district": "MAEWONG/LARD"
    },
    {
        "postal_code": "60160",
        "province": "NAKORN SAWAN",
        "district": "THATAKO"
    },
    {
        "postal_code": "60170",
        "province": "NAKORN SAWAN",
        "district": "KROK-PHRA"
    },
    {
        "postal_code": "60180",
        "province": "NAKORN SAWAN",
        "district": "BUNPHOTPHISA"
    },
    {
        "postal_code": "60190",
        "province": "NAKORN SAWAN",
        "district": "TAK-FA"
    },
    {
        "postal_code": "60210",
        "province": "NAKORN SAWAN",
        "district": "CHONG KAE"
    },
    {
        "postal_code": "60220",
        "province": "NAKORN SAWAN",
        "district": "PISALI"
    },
    {
        "postal_code": "60230",
        "province": "NAKORN SAWAN",
        "district": "KAO-LEAW"
    },
    {
        "postal_code": "60240",
        "province": "NAKORN SAWAN",
        "district": "NONG BEN"
    },
    {
        "postal_code": "60250",
        "province": "NAKORN SAWAN",
        "district": "TAB KRIT"
    },
    {
        "postal_code": "60260",
        "province": "NAKORN SAWAN",
        "district": "CHAN SEN"
    },
    {
        "postal_code": "61000",
        "province": "UTHAI THANI",
        "district": "MUANG"
    },
    {
        "postal_code": "61110",
        "province": "UTHAI THANI",
        "district": "NHONG-CHANG"
    },
    {
        "postal_code": "61120",
        "province": "UTHAI THANI",
        "district": "THUP-THUN"
    },
    {
        "postal_code": "61130",
        "province": "UTHAI THANI",
        "district": "NHONG-KHA-HY"
    },
    {
        "postal_code": "61140",
        "province": "UTHAI THANI",
        "district": "BANN-RAI"
    },
    {
        "postal_code": "61150",
        "province": "UTHAI THANI",
        "district": "SWANG-AR-ROM"
    },
    {
        "postal_code": "61160",
        "province": "UTHAI THANI",
        "district": "LAN-SUK"
    },
    {
        "postal_code": "61170",
        "province": "UTHAI THANI",
        "district": "HUAY-KOD"
    },
    {
        "postal_code": "61170",
        "province": "UTHAI THANI",
        "district": "HUAY-KOD"
    },
    {
        "postal_code": "61180",
        "province": "UTHAI THANI",
        "district": "MUANGKARUNG"
    },
    {
        "postal_code": "63110",
        "province": "TAK",
        "district": "MAE-SOD"
    },
    {
        "postal_code": "65000",
        "province": "PHITSANULOK",
        "district": "MUANG"
    },
    {
        "postal_code": "65110",
        "province": "PHITSANULOK",
        "district": "BANG-KRATUM"
    },
    {
        "postal_code": "65120",
        "province": "PHITSANULOK",
        "district": "NAKORNTHAI"
    },
    {
        "postal_code": "65130",
        "province": "PHITSANULOK",
        "district": "WANGTHONG"
    },
    {
        "postal_code": "65140",
        "province": "PHITSANULOK",
        "district": "BANG-RAKUM"
    },
    {
        "postal_code": "65150",
        "province": "PHITSANULOK",
        "district": "PHROM-PIRAM"
    },
    {
        "postal_code": "65160",
        "province": "PHITSANULOK",
        "district": "WAT-BHOD"
    },
    {
        "postal_code": "65170",
        "province": "PHITSANULOK",
        "district": "CHART-TRAKAR"
    },
    {
        "postal_code": "65180",
        "province": "PHITSANULOK",
        "district": "NONG TOM"
    },
    {
        "postal_code": "65190",
        "province": "PHITSANULOK",
        "district": "NUEN-MAPRANG"
    },
    {
        "postal_code": "65210",
        "province": "PHITSANULOK",
        "district": "NERN KUM"
    },
    {
        "postal_code": "65220",
        "province": "PHITSANULOK",
        "district": "KAENG SOPA"
    },
    {
        "postal_code": "65230",
        "province": "PHITSANULOK",
        "district": "WATPRIK"
    },
    {
        "postal_code": "65240",
        "province": "PHITSANULOK",
        "district": "CHUMSANG-SON"
    },
    {
        "postal_code": "67000",
        "province": "PETCHABOON",
        "district": "MUANG"
    },
    {
        "postal_code": "67110",
        "province": "PETCHABOON",
        "district": "LHOM-SUK"
    },
    {
        "postal_code": "67120",
        "province": "PETCHABOON",
        "district": "LHOM-KAO"
    },
    {
        "postal_code": "67130",
        "province": "PETCHABOON",
        "district": "WICHIEN-BURI"
    },
    {
        "postal_code": "67140",
        "province": "PETCHABOON",
        "district": "NONG-PAI"
    },
    {
        "postal_code": "67150",
        "province": "PETCHABOON",
        "district": "CHON-DAN"
    },
    {
        "postal_code": "67160",
        "province": "PETCHABOON",
        "district": "BUNG-SAMPAN"
    },
    {
        "postal_code": "67170",
        "province": "PETCHABOON",
        "district": "SRI-THEP"
    },
    {
        "postal_code": "67180",
        "province": "PETCHABOON",
        "district": "PUHTOEY"
    },
    {
        "postal_code": "67190",
        "province": "PETCHABOON",
        "district": "DONGKHUI"
    },
    {
        "postal_code": "67210",
        "province": "PETCHABOON",
        "district": "WANG CHOMPOO"
    },
    {
        "postal_code": "67220",
        "province": "PETCHABOON",
        "district": "NACHALIENG"
    },
    {
        "postal_code": "67230",
        "province": "PETCHABOON",
        "district": "WANGPIKUL"
    },
    {
        "postal_code": "67240",
        "province": "PETCHABOON",
        "district": "WANGPONG"
    },
    {
        "postal_code": "67250",
        "province": "PETCHABOON",
        "district": "TAH PON SUB-"
    },
    {
        "postal_code": "67260",
        "province": "PETCHABOON",
        "district": "NAM-NAO"
    },
    {
        "postal_code": "67270",
        "province": "PETCHABOON",
        "district": "KAO-KO"
    },
    {
        "postal_code": "67280",
        "province": "PETCHABOON",
        "district": "CAMP SON"
    },
    {
        "postal_code": "70000",
        "province": "RACHABURI",
        "district": "MUANG"
    },
    {
        "postal_code": "70110",
        "province": "RACHABURI",
        "district": "BANN-PONG"
    },
    {
        "postal_code": "70120",
        "province": "RACHABURI",
        "district": "PHO-TA-RAM"
    },
    {
        "postal_code": "70130",
        "province": "RACHABURI",
        "district": "DOM-NERN-SAD"
    },
    {
        "postal_code": "70140",
        "province": "RACHABURI",
        "district": "PARK-TOE"
    },
    {
        "postal_code": "70150",
        "province": "RACHABURI",
        "district": "JOM-BUNG"
    },
    {
        "postal_code": "70160",
        "province": "RACHABURI",
        "district": "BANG-PAE"
    },
    {
        "postal_code": "70170",
        "province": "RACHABURI",
        "district": "WAT-PLENG"
    },
    {
        "postal_code": "70180",
        "province": "RACHABURI",
        "district": "SUAN-PHUNG"
    },
    {
        "postal_code": "70190",
        "province": "RACHABURI",
        "district": "HUEW-KRABOK"
    },
    {
        "postal_code": "70210",
        "province": "RACHABURI",
        "district": "LAK-HA"
    },
    {
        "postal_code": "71000",
        "province": "KARNCHANABURI",
        "district": "MUANG"
    },
    {
        "postal_code": "71110",
        "province": "KARNCHANABURI",
        "district": "THA-MUNG"
    },
    {
        "postal_code": "71120",
        "province": "KARNCHANABURI",
        "district": "THA-MAKA"
    },
    {
        "postal_code": "71130",
        "province": "KARNCHANABURI",
        "district": "THARUPRATHAN"
    },
    {
        "postal_code": "71140",
        "province": "KARNCHANABURI",
        "district": "PHANUMTHUN"
    },
    {
        "postal_code": "71150",
        "province": "KARNCHANABURI",
        "district": "SAIYOK"
    },
    {
        "postal_code": "71160",
        "province": "KARNCHANABURI",
        "district": "BO-PLOY"
    },
    {
        "postal_code": "71170",
        "province": "KARNCHANABURI",
        "district": "HUAY-KRACHAO"
    },
    {
        "postal_code": "71180",
        "province": "KARNCHANABURI",
        "district": "THONGPHAPHUM"
    },
    {
        "postal_code": "71190",
        "province": "KARNCHANABURI",
        "district": "LARD YA"
    },
    {
        "postal_code": "71210",
        "province": "KARNCHANABURI",
        "district": "LAO-KWAN"
    },
    {
        "postal_code": "71220",
        "province": "KARNCHANABURI",
        "district": "NONGPRUE"
    },
    {
        "postal_code": "71240",
        "province": "KARNCHANABURI",
        "district": "SUNGKLABURI"
    },
    {
        "postal_code": "71250",
        "province": "KARNCHANABURI",
        "district": "SRISAWAS"
    },
    {
        "postal_code": "71260",
        "province": "KARNCHANABURI",
        "district": "DANMAKARMTEI"
    },
    {
        "postal_code": "72000",
        "province": "SUPHAN BURI",
        "district": "MUANG"
    },
    {
        "postal_code": "72110",
        "province": "SUPHAN BURI",
        "district": "SONG-PHEE-NO"
    },
    {
        "postal_code": "72120",
        "province": "SUPHAN BURI",
        "district": "DERM-BANGNAN"
    },
    {
        "postal_code": "72130",
        "province": "SUPHAN BURI",
        "district": "SAM-CHUK"
    },
    {
        "postal_code": "72140",
        "province": "SUPHAN BURI",
        "district": "SRI-PRAJUN"
    },
    {
        "postal_code": "72150",
        "province": "SUPHAN BURI",
        "district": "BANG-PLAMA"
    },
    {
        "postal_code": "72160",
        "province": "SUPHAN BURI",
        "district": "U-THONG"
    },
    {
        "postal_code": "72170",
        "province": "SUPHAN BURI",
        "district": "DON-CHEDI"
    },
    {
        "postal_code": "72180",
        "province": "SUPHAN BURI",
        "district": "DAN-CHANG"
    },
    {
        "postal_code": "72190",
        "province": "SUPHAN BURI",
        "district": "THUNGKOK"
    },
    {
        "postal_code": "72210",
        "province": "SUPHAN BURI",
        "district": "SUAN TANG"
    },
    {
        "postal_code": "72220",
        "province": "SUPHAN BURI",
        "district": "SRAYAISOM"
    },
    {
        "postal_code": "72230",
        "province": "SUPHAN BURI",
        "district": "THASADEJ"
    },
    {
        "postal_code": "72240",
        "province": "SUPHAN BURI",
        "district": "NONG-YA-SAI"
    },
    {
        "postal_code": "72250",
        "province": "SUPHAN BURI",
        "district": "SRAKRAJOM"
    },
    {
        "postal_code": "73000",
        "province": "NAKORN PHATHOM",
        "district": "MUANG"
    },
    {
        "postal_code": "73110",
        "province": "NAKORN PHATHOM",
        "district": "SAM-PRAN"
    },
    {
        "postal_code": "73120",
        "province": "NAKORN PHATHOM",
        "district": "NAKORNCHAISR"
    },
    {
        "postal_code": "73130",
        "province": "NAKORN PHATHOM",
        "district": "NULL"
    },
    {
        "postal_code": "73140",
        "province": "NAKORN PHATHOM",
        "district": "KUNMPHANGSEA"
    },
    {
        "postal_code": "73150",
        "province": "NAKORN PHATHOM",
        "district": "DON-THUM"
    },
    {
        "postal_code": "73160",
        "province": "NAKORN PHATHOM",
        "district": "OMYAI"
    },
    {
        "postal_code": "73170",
        "province": "NAKORN PHATHOM",
        "district": "PHUTTAMONTHO"
    },
    {
        "postal_code": "73180",
        "province": "NAKORN PHATHOM",
        "district": "SRAPATTANA"
    },
    {
        "postal_code": "73190",
        "province": "NAKORN PHATHOM",
        "district": "NULL"
    },
    {
        "postal_code": "73210",
        "province": "NAKORN PHATHOM",
        "district": "RAIKHING"
    },
    {
        "postal_code": "73220",
        "province": "NAKORN PHATHOM",
        "district": "KRATUMLUM"
    },
    {
        "postal_code": "74000",
        "province": "SAMUT SAKORN",
        "district": "MUANG"
    },
    {
        "postal_code": "74110",
        "province": "SAMUT SAKORN",
        "district": "KRATHUM-BAN"
    },
    {
        "postal_code": "74120",
        "province": "SAMUT SAKORN",
        "district": "BANN-PRAW"
    },
    {
        "postal_code": "74130",
        "province": "SAMUT SAKORN",
        "district": "OMNOI"
    },
    {
        "postal_code": "75000",
        "province": "SAMUT SONGKRAM",
        "district": "MUANG"
    },
    {
        "postal_code": "75110",
        "province": "SAMUT SONGKRAM",
        "district": "AM-PAVA"
    },
    {
        "postal_code": "75120",
        "province": "SAMUT SONGKRAM",
        "district": "BANG-KONTEE"
    },
    {
        "postal_code": "76000",
        "province": "PETCHABURI",
        "district": "MUANG"
    },
    {
        "postal_code": "76100",
        "province": "PETCHABURI",
        "district": "HAD-JAOSAMRA"
    },
    {
        "postal_code": "76110",
        "province": "PETCHABURI",
        "district": "BANN-LEAM"
    },
    {
        "postal_code": "76120",
        "province": "PETCHABURI",
        "district": "CHA-UM"
    },
    {
        "postal_code": "76130",
        "province": "PETCHABURI",
        "district": "THA-YANG"
    },
    {
        "postal_code": "76140",
        "province": "PETCHABURI",
        "district": "KAO-YOI"
    },
    {
        "postal_code": "76150",
        "province": "PETCHABURI",
        "district": "BANN-LARD"
    },
    {
        "postal_code": "76160",
        "province": "PETCHABURI",
        "district": "NONG-YA-PLON"
    },
    {
        "postal_code": "76170",
        "province": "PETCHABURI",
        "district": "KHENG-KRAJAN"
    },
    {
        "postal_code": "77000",
        "province": "PRACHUAB KIRIKHUN",
        "district": "MUANG"
    },
    {
        "postal_code": "77110",
        "province": "PRACHUAB KIRIKHUN",
        "district": "HUA-HIN"
    },
    {
        "postal_code": "77120",
        "province": "PRACHUAB KIRIKHUN",
        "district": "PRAN-BURI"
    },
    {
        "postal_code": "77150",
        "province": "PRACHUAB KIRIKHUN",
        "district": "KUI-BURI"
    },
    {
        "postal_code": "77160",
        "province": "PRACHUAB KIRIKHUN",
        "district": "THANARAT"
    },
    {
        "postal_code": "77180",
        "province": "PRACHUAB KIRIKHUN",
        "district": "SAMROIYOD"
    },
    {
        "postal_code": "77210",
        "province": "PRACHUAB KIRIKHUN",
        "district": "AO-NOI"
    },
    {
        "postal_code": "77220",
        "province": "PRACHUAB KIRIKHUN",
        "district": "PAKNAMPRAN"
    },
    {
        "postal_code": "80000",
        "province": "NAKORN SRITHAMMARAT",
        "district": "MUANG"
    },
    {
        "postal_code": "80110",
        "province": "NAKORN SRITHAMMARAT",
        "district": "THUNGSONG"
    },
    {
        "postal_code": "80120",
        "province": "NAKORN SRITHAMMARAT",
        "district": "SICHOL"
    },
    {
        "postal_code": "80130",
        "province": "NAKORN SRITHAMMARAT",
        "district": "RONPIBOL"
    },
    {
        "postal_code": "80140",
        "province": "NAKORN SRITHAMMARAT",
        "district": "PARKPANANG"
    },
    {
        "postal_code": "80150",
        "province": "NAKORN SRITHAMMARAT",
        "district": "CHA-WHANG"
    },
    {
        "postal_code": "80160",
        "province": "NAKORN SRITHAMMARAT",
        "district": "THASALA"
    },
    {
        "postal_code": "80170",
        "province": "NAKORN SRITHAMMARAT",
        "district": "HUA-SAI"
    },
    {
        "postal_code": "80180",
        "province": "NAKORN SRITHAMMARAT",
        "district": "CHA-OUD"
    },
    {
        "postal_code": "80190",
        "province": "NAKORN SRITHAMMARAT",
        "district": "CHEINYAI"
    },
    {
        "postal_code": "80210",
        "province": "NAKORN SRITHAMMARAT",
        "district": "KANOM"
    },
    {
        "postal_code": "80220",
        "province": "NAKORN SRITHAMMARAT",
        "district": "NABON"
    },
    {
        "postal_code": "80230",
        "province": "NAKORN SRITHAMMARAT",
        "district": "LANSAKA"
    },
    {
        "postal_code": "80240",
        "province": "NAKORN SRITHAMMARAT",
        "district": "THUNGYAI"
    },
    {
        "postal_code": "80250",
        "province": "NAKORN SRITHAMMARAT",
        "district": "CHANGKLANG"
    },
    {
        "postal_code": "80260",
        "province": "NAKORN SRITHAMMARAT",
        "district": "TAMPANNARA"
    },
    {
        "postal_code": "80270",
        "province": "NAKORN SRITHAMMARAT",
        "district": "PIPOON"
    },
    {
        "postal_code": "80280",
        "province": "NAKORN SRITHAMMARAT",
        "district": "KAOMAHACHAI"
    },
    {
        "postal_code": "80290",
        "province": "NAKORN SRITHAMMARAT",
        "district": "CHAMAO"
    },
    {
        "postal_code": "80310",
        "province": "NAKORN SRITHAMMARAT",
        "district": "BAN-PHUN"
    },
    {
        "postal_code": "80320",
        "province": "NAKORN SRITHAMMARAT",
        "district": "PHROMKIRI"
    },
    {
        "postal_code": "80330",
        "province": "NAKORN SRITHAMMARAT",
        "district": "BANGCHAK"
    },
    {
        "postal_code": "80340",
        "province": "NAKORN SRITHAMMARAT",
        "district": "SAOPAO"
    },
    {
        "postal_code": "80350",
        "province": "NAKORN SRITHAMMARAT",
        "district": "MAILAR"
    },
    {
        "postal_code": "80360",
        "province": "NAKORN SRITHAMMARAT",
        "district": "BANGKHUN"
    },
    {
        "postal_code": "80370",
        "province": "NAKORN SRITHAMMARAT",
        "district": "Pak Phanang"
    },
    {
        "postal_code": "82000",
        "province": "PHANG-NGA",
        "district": "MUANG"
    },
    {
        "postal_code": "82130",
        "province": "PHANG-NGA",
        "district": "TA-KUO-THUNG"
    },
    {
        "postal_code": "82140",
        "province": "PHANG-NGA",
        "district": "KOK KLOY"
    },
    {
        "postal_code": "83000",
        "province": "PHUKET",
        "district": "MUANG"
    },
    {
        "postal_code": "83100",
        "province": "PHUKET",
        "district": "KARON"
    },
    {
        "postal_code": "83110",
        "province": "PHUKET",
        "district": "THA-LANG"
    },
    {
        "postal_code": "83120",
        "province": "PHUKET",
        "district": "KA-TOO"
    },
    {
        "postal_code": "83130",
        "province": "PHUKET",
        "district": "RAWAI"
    },
    {
        "postal_code": "83150",
        "province": "PHUKET",
        "district": "PA-TONG"
    },
    {
        "postal_code": "84000",
        "province": "SURATTHANI",
        "district": "MUANG"
    },
    {
        "postal_code": "84100",
        "province": "SURATTHANI",
        "district": "KHUN TALAY"
    },
    {
        "postal_code": "84110",
        "province": "SURATTHANI",
        "district": "CHAI-YA"
    },
    {
        "postal_code": "84120",
        "province": "SURATTHANI",
        "district": "BANN-NASARN"
    },
    {
        "postal_code": "84130",
        "province": "SURATTHANI",
        "district": "PHUN-PHIN"
    },
    {
        "postal_code": "84150",
        "province": "SURATTHANI",
        "district": "THA-CHANG"
    },
    {
        "postal_code": "84160",
        "province": "SURATTHANI",
        "district": "KARN-JANA-DI"
    },
    {
        "postal_code": "84170",
        "province": "SURATTHANI",
        "district": "THA-CHANA"
    },
    {
        "postal_code": "84180",
        "province": "SURATTHANI",
        "district": "KIRIRUT-NIKO"
    },
    {
        "postal_code": "84190",
        "province": "SURATTHANI",
        "district": "WIENG-SRA"
    },
    {
        "postal_code": "84210",
        "province": "SURATTHANI",
        "district": "CHAI-BURI/PR"
    },
    {
        "postal_code": "84220",
        "province": "SURATTHANI",
        "district": "DON-SUK"
    },
    {
        "postal_code": "84230",
        "province": "SURATTHANI",
        "district": "BANN-TAKHUN"
    },
    {
        "postal_code": "84240",
        "province": "SURATTHANI",
        "district": "BANN-NADERM"
    },
    {
        "postal_code": "84250",
        "province": "SURATTHANI",
        "district": "PA-NOM"
    },
    {
        "postal_code": "84260",
        "province": "SURATTHANI",
        "district": "KIEN-SA"
    },
    {
        "postal_code": "84270",
        "province": "SURATTHANI",
        "district": "PRUPREE"
    },
    {
        "postal_code": "84290",
        "province": "SURATTHANI",
        "district": "THA THONGMAI"
    },
    {
        "postal_code": "84340",
        "province": "SURATTHANI",
        "district": "PAKPRAEK"
    },
    {
        "postal_code": "84350",
        "province": "SURATTHANI",
        "district": "CHAIBURI"
    },
    {
        "postal_code": "84370",
        "province": "SURATTHANI",
        "district": "Vibhavadi "
    },
    {
        "postal_code": "90000",
        "province": "SONG KHLA",
        "district": "MUANG"
    },
    {
        "postal_code": "90100",
        "province": "SONG KHLA",
        "district": "PAWONG"
    },
    {
        "postal_code": "90110",
        "province": "SONG KHLA",
        "district": "HATYAI"
    },
    {
        "postal_code": "90112",
        "province": "SONG KHLA",
        "district": "Songkla University"
    },
    {
        "postal_code": "90115",
        "province": "SONG KHLA",
        "district": "KLONGHOIKONG"
    },
    {
        "postal_code": "90120",
        "province": "SONG KHLA",
        "district": "SADAO"
    },
    {
        "postal_code": "90130",
        "province": "SONG KHLA",
        "district": "JANA"
    },
    {
        "postal_code": "90140",
        "province": "SONG KHLA",
        "district": "RA-NOD"
    },
    {
        "postal_code": "90150",
        "province": "SONG KHLA",
        "district": "THAEPHA"
    },
    {
        "postal_code": "90160",
        "province": "SONG KHLA",
        "district": "NA-THAVEE"
    },
    {
        "postal_code": "90170",
        "province": "SONG KHLA",
        "district": "KLONG NGAE"
    },
    {
        "postal_code": "90180",
        "province": "SONG KHLA",
        "district": "RUTTA-PHUM"
    },
    {
        "postal_code": "90190",
        "province": "SONG KHLA",
        "district": "STING-PHRA"
    },
    {
        "postal_code": "90210",
        "province": "SONG KHLA",
        "district": "SABA-YOI"
    },
    {
        "postal_code": "90220",
        "province": "SONG KHLA",
        "district": "KUAN-NENG"
    },
    {
        "postal_code": "90230",
        "province": "SONG KHLA",
        "district": "KLONGHOIKONG"
    },
    {
        "postal_code": "90240",
        "province": "SONG KHLA",
        "district": "PADANG BAESA"
    },
    {
        "postal_code": "90250",
        "province": "SONG KHLA",
        "district": "BAN PRU"
    },
    {
        "postal_code": "90260",
        "province": "SONG KHLA",
        "district": "THAEPHA"
    },
    {
        "postal_code": "90270",
        "province": "SONG KHLA",
        "district": "KRASAE-SINTH"
    },
    {
        "postal_code": "90280",
        "province": "SONG KHLA",
        "district": "SINGHA-NAKOR"
    },
    {
        "postal_code": "90310",
        "province": "SONG KHLA",
        "district": "NA-MOM"
    },
    {
        "postal_code": "90320",
        "province": "SONG KHLA",
        "district": "BAN DANNOK"
    },
    {
        "postal_code": "90330",
        "province": "SONG KHLA",
        "district": "MAUNG NGAM"
    },
    {
        "postal_code": "51000",
        "province": "LAMPHUN",
        "district": "MUANG"
    },
    {
        "postal_code": "51110",
        "province": "LAMPHUN",
        "district": "LEE"
    },
    {
        "postal_code": "51120",
        "province": "LAMPHUN",
        "district": "PA-SANG"
    },
    {
        "postal_code": "51120",
        "province": "LAMPHUN",
        "district": "PA-SANG"
    },
    {
        "postal_code": "51130",
        "province": "LAMPHUN",
        "district": "BANN-HONG"
    },
    {
        "postal_code": "51140",
        "province": "LAMPHUN",
        "district": "MAE-THA"
    },
    {
        "postal_code": "51160",
        "province": "LAMPHUN",
        "district": "THUNG-HUACHA"
    },
    {
        "postal_code": "51180",
        "province": "LAMPHUN",
        "district": "BANG-THI"
    },
    {
        "postal_code": "56000",
        "province": "PAYAO",
        "district": "MUANG"
    },
    {
        "postal_code": "56000",
        "province": "PAYAO",
        "district": "MUANG"
    },
    {
        "postal_code": "56110",
        "province": "PAYAO",
        "district": "CHIANGCOME/P"
    },
    {
        "postal_code": "56110",
        "province": "PAYAO",
        "district": "CHIANGCOME/P"
    },
    {
        "postal_code": "56120",
        "province": "PAYAO",
        "district": "DOK-KOMTAI"
    },
    {
        "postal_code": "56130",
        "province": "PAYAO",
        "district": "MAE-JAI"
    },
    {
        "postal_code": "56140",
        "province": "PAYAO",
        "district": "PONG"
    },
    {
        "postal_code": "56150",
        "province": "PAYAO",
        "district": "JUNE"
    },
    {
        "postal_code": "56160",
        "province": "PAYAO",
        "district": "CHIANGMON"
    },
    {
        "postal_code": "62000",
        "province": "KUMPHENGPHET",
        "district": "MUANG"
    },
    {
        "postal_code": "62000",
        "province": "KUMPHENGPHET",
        "district": "MUANG"
    },
    {
        "postal_code": "62110",
        "province": "KUMPHENGPHET",
        "district": "PRANKRATAI"
    },
    {
        "postal_code": "62120",
        "province": "KUMPHENGPHET",
        "district": "KLONGKHUNG/P"
    },
    {
        "postal_code": "62120",
        "province": "KUMPHENGPHET",
        "district": "KLONGKHUNG/P"
    },
    {
        "postal_code": "62130",
        "province": "KUMPHENGPHET",
        "district": "CHANUWORALUK"
    },
    {
        "postal_code": "62150",
        "province": "KUMPHENGPHET",
        "district": "SAI-NGAM"
    },
    {
        "postal_code": "62170",
        "province": "KUMPHENGPHET",
        "district": "LANKRABUE"
    },
    {
        "postal_code": "62180",
        "province": "KUMPHENGPHET",
        "district": "KLONGLAN"
    },
    {
        "postal_code": "62190",
        "province": "KUMPHENGPHET",
        "district": "THUNGSAI"
    },
    {
        "postal_code": "62210",
        "province": "KUMPHENGPHET",
        "district": "BUNGSAMUKKI"
    },
    {
        "postal_code": "63000",
        "province": "TAK",
        "district": "MUANG"
    },
    {
        "postal_code": "63000",
        "province": "TAK",
        "district": "MUANG"
    },
    {
        "postal_code": "63110",
        "province": "TAK",
        "district": "MAE-SOD"
    },
    {
        "postal_code": "63120",
        "province": "TAK",
        "district": "BANNTAK"
    },
    {
        "postal_code": "63130",
        "province": "TAK",
        "district": "SAM-NGAO"
    },
    {
        "postal_code": "63140",
        "province": "TAK",
        "district": "MAE-RAMARD"
    },
    {
        "postal_code": "63150",
        "province": "TAK",
        "district": "TA-SONGYANG"
    },
    {
        "postal_code": "63160",
        "province": "TAK",
        "district": "PHOB-PRA"
    },
    {
        "postal_code": "64000",
        "province": "SUKHOTHAI",
        "district": "MUANG"
    },
    {
        "postal_code": "64110",
        "province": "SUKHOTHAI",
        "district": "SWAN-KALOK"
    },
    {
        "postal_code": "64120",
        "province": "SUKHOTHAI",
        "district": "SRI-SUMRONG"
    },
    {
        "postal_code": "64130",
        "province": "SUKHOTHAI",
        "district": "SRI-SUCHANAL"
    },
    {
        "postal_code": "64140",
        "province": "SUKHOTHAI",
        "district": "BANN-DANLANH"
    },
    {
        "postal_code": "64150",
        "province": "SUKHOTHAI",
        "district": "THUNG-SALEAM"
    },
    {
        "postal_code": "64160",
        "province": "SUKHOTHAI",
        "district": "KIRIMAS"
    },
    {
        "postal_code": "64170",
        "province": "SUKHOTHAI",
        "district": "KONG-KRILAS"
    },
    {
        "postal_code": "64180",
        "province": "SUKHOTHAI",
        "district": "SRINAKORN"
    },
    {
        "postal_code": "66000",
        "province": "PHICHIT",
        "district": "MUANG"
    },
    {
        "postal_code": "66110",
        "province": "PHICHIT",
        "district": "TAPARN-HIN"
    },
    {
        "postal_code": "66120",
        "province": "PHICHIT",
        "district": "BANG-MULNAK"
    },
    {
        "postal_code": "66130",
        "province": "PHICHIT",
        "district": "PHO-TA-LAE"
    },
    {
        "postal_code": "66130",
        "province": "PHICHIT",
        "district": "PHO-TA-LAE"
    },
    {
        "postal_code": "66140",
        "province": "PHICHIT",
        "district": "SARM-NGAM"
    },
    {
        "postal_code": "66140",
        "province": "PHICHIT",
        "district": "SARM-NGAM"
    },
    {
        "postal_code": "66150",
        "province": "PHICHIT",
        "district": "THUP-KLOW"
    },
    {
        "postal_code": "66160",
        "province": "PHICHIT",
        "district": "SAK LEK"
    },
    {
        "postal_code": "66180",
        "province": "PHICHIT",
        "district": "WANG-SAIPOON"
    },
    {
        "postal_code": "66190",
        "province": "PHICHIT",
        "district": "PHO-PRATHAPC"
    },
    {
        "postal_code": "66210",
        "province": "PHICHIT",
        "district": "DONG CHAROEN"
    },
    {
        "postal_code": "42000",
        "province": "LOEI",
        "district": "MUANG"
    },
    {
        "postal_code": "42130",
        "province": "LOEI",
        "district": "WANG-SAPUNG"
    },
    {
        "postal_code": "42230",
        "province": "LOEI",
        "district": "PHU-LUANG"
    },
    {
        "postal_code": "42160",
        "province": "LOEI",
        "district": "PHU-RUE"
    },
    {
        "postal_code": "42180",
        "province": "LOEI",
        "district": "PHU-KRADUNG"
    },
    {
        "postal_code": "42190",
        "province": "LOEI",
        "district": "NONG HIN"
    },
    {
        "postal_code": "42220",
        "province": "LOEI",
        "district": "ERAWAN"
    },
    {
        "postal_code": "42110",
        "province": "LOEI",
        "district": "CHIANGKAN"
    },
    {
        "postal_code": "42120",
        "province": "LOEI",
        "district": "DANSAI"
    },
    {
        "postal_code": "42140",
        "province": "LOEI",
        "district": "THALI"
    },
    {
        "postal_code": "42210",
        "province": "LOEI",
        "district": "NA-DUANG"
    },
    {
        "postal_code": "42170",
        "province": "LOEI",
        "district": "NA-HAEW"
    },
    {
        "postal_code": "42150",
        "province": "LOEI",
        "district": "PARK-CHOM"
    },
    {
        "postal_code": "42240",
        "province": "LOEI",
        "district": "PHA-KAOW"
    },
    {
        "postal_code": "46000",
        "province": "KALASIN",
        "district": "MUANG"
    },
    {
        "postal_code": "46130",
        "province": "KALASIN",
        "district": "KALAMASAI"
    },
    {
        "postal_code": "46000",
        "province": "KALASIN",
        "district": "MUANG"
    },
    {
        "postal_code": "46180",
        "province": "KALASIN",
        "district": "KUMMUANG"
    },
    {
        "postal_code": "46160",
        "province": "KALASIN",
        "district": "KAOWONG"
    },
    {
        "postal_code": "46240",
        "province": "KALASIN",
        "district": "HUAY-PHUNG"
    },
    {
        "postal_code": "46130",
        "province": "KALASIN",
        "district": "KALAMASAI"
    },
    {
        "postal_code": "46170",
        "province": "KALASIN",
        "district": "HUAY-MEK"
    },
    {
        "postal_code": "46220",
        "province": "KALASIN",
        "district": "NONGKUNGSRI"
    },
    {
        "postal_code": "46160",
        "province": "KALASIN",
        "district": "KAOWONG"
    },
    {
        "postal_code": "46210",
        "province": "KALASIN",
        "district": "ROUNGKUM"
    },
    {
        "postal_code": "46150",
        "province": "KALASIN",
        "district": "SOMDEJ"
    },
    {
        "postal_code": "46140",
        "province": "KALASIN",
        "district": "SAHASKHUN"
    },
    {
        "postal_code": "46230",
        "province": "KALASIN",
        "district": "NA-MON"
    },
    {
        "postal_code": "46190",
        "province": "KALASIN",
        "district": "THAKUNTO"
    },
    {
        "postal_code": "46180",
        "province": "KALASIN",
        "district": "KUMMUANG"
    },
    {
        "postal_code": "46110",
        "province": "KALASIN",
        "district": "KUSINARAI"
    },
    {
        "postal_code": "46120",
        "province": "KALASIN",
        "district": "YANGTALAD"
    },
    {
        "postal_code": "38000",
        "province": "BUNG KARN",
        "district": "MUANG BUNGKA"
    },
    {
        "postal_code": "38150",
        "province": "BUNG KARN",
        "district": "SE-KA"
    },
    {
        "postal_code": "38170",
        "province": "BUNG KARN",
        "district": "SO-PISAI"
    },
    {
        "postal_code": "38180",
        "province": "BUNG KARN",
        "district": "PORN-CHAROEN"
    },
    {
        "postal_code": "38190",
        "province": "BUNG KARN",
        "district": "PAK-KARD"
    },
    {
        "postal_code": "38210",
        "province": "BUNG KARN",
        "district": "SRI-VILAI"
    },
    {
        "postal_code": "38220",
        "province": "BUNG KARN",
        "district": "BUNG-KHONG-L"
    },
    {
        "postal_code": "43140",
        "province": "BUNG KARN",
        "district": "Bung Khla"
    },
    {
        "postal_code": "44000",
        "province": "MAHASARAKAM",
        "district": "MUANG"
    },
    {
        "postal_code": "44180",
        "province": "MAHASARAKAM",
        "district": "NA-DOON"
    },
    {
        "postal_code": "44110",
        "province": "MAHASARAKAM",
        "district": "PAYAK-PHUMMI"
    },
    {
        "postal_code": "44120",
        "province": "MAHASARAKAM",
        "district": "WAPEE-PATHUM"
    },
    {
        "postal_code": "44160",
        "province": "MAHASARAKAM",
        "district": "CHIANG-YEUN"
    },
    {
        "postal_code": "44130",
        "province": "MAHASARAKAM",
        "district": "BO-RA-BUE"
    },
    {
        "postal_code": "44210",
        "province": "MAHASARAKAM",
        "district": "YANGSRI-SURA"
    },
    {
        "postal_code": "44130",
        "province": "MAHASARAKAM",
        "district": "BO-RA-BUE"
    },
    {
        "postal_code": "44170",
        "province": "MAHASARAKAM",
        "district": "NA-CHURK"
    },
    {
        "postal_code": "44160",
        "province": "MAHASARAKAM",
        "district": "CHIANG-YEUN"
    },
    {
        "postal_code": "44140",
        "province": "MAHASARAKAM",
        "district": "KOSUM-PISAI"
    },
    {
        "postal_code": "44190",
        "province": "MAHASARAKAM",
        "district": "KAE-DUM"
    },
    {
        "postal_code": "44150",
        "province": "MAHASARAKAM",
        "district": "KUN-THORN-WI"
    },
    {
        "postal_code": "49000",
        "province": "MUKDAHAN",
        "district": "MUANG"
    },
    {
        "postal_code": "49110",
        "province": "MUKDAHAN",
        "district": "KUM-CHA-E/NO"
    },
    {
        "postal_code": "49140",
        "province": "MUKDAHAN",
        "district": "DONG-LUANG"
    },
    {
        "postal_code": "49120",
        "province": "MUKDAHAN",
        "district": "DON-TAL"
    },
    {
        "postal_code": "49130",
        "province": "MUKDAHAN",
        "district": "NIKOM-KUMSOI"
    },
    {
        "postal_code": "49150",
        "province": "MUKDAHAN",
        "district": "WHAN-YAI"
    },
    {
        "postal_code": "49160",
        "province": "MUKDAHAN",
        "district": "NONGSOONG"
    },
    {
        "postal_code": "35000",
        "province": "YASOTHORN",
        "district": "MUANG"
    },
    {
        "postal_code": "35130",
        "province": "YASOTHORN",
        "district": "MAHA-CHANA-C"
    },
    {
        "postal_code": "35150",
        "province": "YASOTHORN",
        "district": "PA-TEW"
    },
    {
        "postal_code": "35170",
        "province": "YASOTHORN",
        "district": "SAI-MUL"
    },
    {
        "postal_code": "35110",
        "province": "YASOTHORN",
        "district": "KUM-KHUEN-KA"
    },
    {
        "postal_code": "35160",
        "province": "YASOTHORN",
        "district": "KHO-WANG"
    },
    {
        "postal_code": "35140",
        "province": "YASOTHORN",
        "district": "KUD-CHUM"
    },
    {
        "postal_code": "35120",
        "province": "YASOTHORN",
        "district": "THAI-CHALOEN"
    },
    {
        "postal_code": "35120",
        "province": "YASOTHORN",
        "district": "THAI-CHALOEN"
    },
    {
        "postal_code": "43000",
        "province": "NONG KAI",
        "district": "MUANG"
    },
    {
        "postal_code": "43130",
        "province": "NONG KAI",
        "district": "SRI-CHIANGMA"
    },
    {
        "postal_code": "43100",
        "province": "NONG KAI",
        "district": "SRA-KRAI"
    },
    {
        "postal_code": "43160",
        "province": "NONG KAI",
        "district": "SUNG-KOM"
    },
    {
        "postal_code": "43130",
        "province": "NONG KAI",
        "district": "SRI-CHIANGMA"
    },
    {
        "postal_code": "43110",
        "province": "NONG KAI",
        "district": "THA-BOU"
    },
    {
        "postal_code": "43120",
        "province": "NONG KAI",
        "district": "PHON-PISAI"
    },
    {
        "postal_code": "43120",
        "province": "NONG KAI",
        "district": "PHON-PISAI"
    },
    {
        "postal_code": "43120",
        "province": "NONG KAI",
        "district": "PHON-PISAI"
    },
    {
        "postal_code": "80000",
        "province": "MUANG",
        "district": "NAKORN SRITHAMMARAT"
    },
    {
        "postal_code": "80110",
        "province": "THUNGSONG",
        "district": "NAKORN SRITHAMMARAT"
    },
    {
        "postal_code": "80120",
        "province": "SICHOL",
        "district": "NAKORN SRITHAMMARAT"
    },
    {
        "postal_code": "80130",
        "province": "RONPIBOL",
        "district": "NAKORN SRITHAMMARAT"
    },
    {
        "postal_code": "80140",
        "province": "PARKPANANG",
        "district": "NAKORN SRITHAMMARAT"
    },
    {
        "postal_code": "80150",
        "province": "CHA-WHANG",
        "district": "NAKORN SRITHAMMARAT"
    },
    {
        "postal_code": "80160",
        "province": "THASALA",
        "district": "NAKORN SRITHAMMARAT"
    },
    {
        "postal_code": "80170",
        "province": "HUA-SAI",
        "district": "NAKORN SRITHAMMARAT"
    },
    {
        "postal_code": "80180",
        "province": "CHA-OUD",
        "district": "NAKORN SRITHAMMARAT"
    },
    {
        "postal_code": "80190",
        "province": "CHEINYAI",
        "district": "NAKORN SRITHAMMARAT"
    },
    {
        "postal_code": "80210",
        "province": "KANOM",
        "district": "NAKORN SRITHAMMARAT"
    },
    {
        "postal_code": "80220",
        "province": "NABON",
        "district": "NAKORN SRITHAMMARAT"
    },
    {
        "postal_code": "80230",
        "province": "LANSAKA",
        "district": "NAKORN SRITHAMMARAT"
    },
    {
        "postal_code": "80240",
        "province": "THUNGYAI",
        "district": "NAKORN SRITHAMMARAT"
    },
    {
        "postal_code": "80250",
        "province": "CHANGKLANG",
        "district": "NAKORN SRITHAMMARAT"
    },
    {
        "postal_code": "80260",
        "province": "TAMPANNARA",
        "district": "NAKORN SRITHAMMARAT"
    },
    {
        "postal_code": "80270",
        "province": "PIPOON",
        "district": "NAKORN SRITHAMMARAT"
    },
    {
        "postal_code": "80280",
        "province": "KAOMAHACHAI",
        "district": "NAKORN SRITHAMMARAT"
    },
    {
        "postal_code": "80290",
        "province": "CHAMAO",
        "district": "NAKORN SRITHAMMARAT"
    },
    {
        "postal_code": "80310",
        "province": "BAN-PHUN",
        "district": "NAKORN SRITHAMMARAT"
    },
    {
        "postal_code": "80320",
        "province": "PHROMKIRI",
        "district": "NAKORN SRITHAMMARAT"
    },
    {
        "postal_code": "80330",
        "province": "BANGCHAK",
        "district": "NAKORN SRITHAMMARAT"
    },
    {
        "postal_code": "80340",
        "province": "SAOPAO",
        "district": "NAKORN SRITHAMMARAT"
    },
    {
        "postal_code": "80350",
        "province": "MAILAR",
        "district": "NAKORN SRITHAMMARAT"
    },
    {
        "postal_code": "80360",
        "province": "BANGKHUN",
        "district": "NAKORN SRITHAMMARAT"
    }
]