<svg width="30" height="30" viewBox="0 0 30 30" fill="none" xmlns="http://www.w3.org/2000/svg">
<rect x="0.75" y="0.75" width="28.5" height="28.5" rx="3.25" stroke="white" stroke-width="1.5"/>
<path fill-rule="evenodd" clip-rule="evenodd" d="M8 10.5H22H8Z" fill="white"/>
<path d="M8 10.5H22" stroke="white" stroke-width="1.5" stroke-linecap="round"/>
<path fill-rule="evenodd" clip-rule="evenodd" d="M8 15.5H22H8Z" fill="white"/>
<path d="M8 15.5H22" stroke="white" stroke-width="1.5" stroke-linecap="round"/>
<path fill-rule="evenodd" clip-rule="evenodd" d="M8 20.5H22H8Z" fill="white"/>
<path d="M8 20.5H22" stroke="white" stroke-width="1.5" stroke-linecap="round"/>
</svg>
