<svg width="24" height="23" viewBox="0 0 24 23" fill="none" xmlns="http://www.w3.org/2000/svg">
<path fill-rule="evenodd" clip-rule="evenodd" d="M17 1C20.3137 1 23 3.68629 23 7C23 12.9984 12 22 12 22C12 22 1 12.9996 1 7C1 3.68629 3.68629 1 7 1C9.08751 1 10.926 2.06607 12.0008 3.68347C13.074 2.06607 14.9125 1 17 1Z" fill="white" fill-opacity="0.1" stroke="white" stroke-width="1.5"/>
</svg>
