<svg width="19" height="13" viewBox="0 0 19 13" fill="none" xmlns="http://www.w3.org/2000/svg">
<path d="M6.50002 1.4082L1.55027 6.35337L6.50002 11.2985" stroke="#333435" stroke-width="2"/>
<path d="M18.5 6.35376H2.50002" stroke="#333435" stroke-width="2"/>
</svg>
