<svg width="29" height="31" viewBox="0 0 29 31" fill="none" xmlns="http://www.w3.org/2000/svg">
<circle cx="14.2355" cy="7.94118" r="6.94118" stroke="#1895F5" stroke-width="2"/>
<path d="M0.999995 30V26.0991C0.999995 22.4058 6.27683 19.4118 14.2353 19.4118C22.1937 19.4118 27.4706 22.4058 27.4706 26.0991L27.4706 30" stroke="#1895F5" stroke-width="2" stroke-linecap="round"/>
</svg>
