<svg width="48" height="48" viewBox="0 0 48 48" fill="none" xmlns="http://www.w3.org/2000/svg">
<path d="M24 0L28.2724 5.28138L34.4132 2.37675L35.971 8.98884L42.764 9.03624L41.2986 15.6694L47.3983 18.6595L43.2 24L47.3983 29.3405L41.2986 32.3306L42.764 38.9638L35.971 39.0112L34.4132 45.6233L28.2724 42.7186L24 48L19.7276 42.7186L13.5868 45.6233L12.029 39.0112L5.23604 38.9638L6.7014 32.3306L0.60173 29.3405L4.8 24L0.60173 18.6595L6.7014 15.6694L5.23604 9.03624L12.029 8.98884L13.5868 2.37675L19.7276 5.28138L24 0Z" fill="#F6A500"/>
<path d="M16.8824 24.3574L20.3824 30.4195L19.2306 31.0845L14.0832 29.1489L16.2082 32.8295L14.8226 33.6295L11.3226 27.5674L12.483 26.8974L17.6218 28.838L15.4968 25.1574L16.8824 24.3574ZM25.8606 25.7556L26.5106 26.8814L21.8167 29.5914L18.3167 23.5293L22.898 20.8843L23.548 22.0101L20.361 23.8501L21.121 25.1665L23.9356 23.5415L24.5656 24.6327L21.751 26.2577L22.561 27.6606L25.8606 25.7556ZM33.2049 14.9336L34.7217 22.1408L33.2148 23.0108L29.5111 19.6758L30.5041 24.5758L29.0059 25.4408L23.514 20.5286L24.9689 19.6886L28.7973 23.1594L27.7662 18.0736L29.0652 17.3236L32.9309 20.8191L31.8625 15.7086L33.2049 14.9336Z" fill="white"/>
</svg>
