<svg width="100" height="18" viewBox="0 0 100 18" fill="none" xmlns="http://www.w3.org/2000/svg">
<path fill-rule="evenodd" clip-rule="evenodd" d="M10 13.0568L5.29772 16.4721L7.09283 10.9446L2.39155 7.52786L8.20327 7.52702L10 2L11.7967 7.52702L17.6085 7.52786L12.9072 10.9446L14.7023 16.4721L10 13.0568Z" fill="#F6A500" stroke="#F6A500"/>
<path fill-rule="evenodd" clip-rule="evenodd" d="M50 13.0568L45.2977 16.4721L47.0928 10.9446L42.3915 7.52786L48.2033 7.52702L50 2L51.7967 7.52702L57.6085 7.52786L52.9072 10.9446L54.7023 16.4721L50 13.0568Z" fill="#F6A500" stroke="#F6A500"/>
<path fill-rule="evenodd" clip-rule="evenodd" d="M30 13.0568L25.2977 16.4721L27.0928 10.9446L22.3915 7.52786L28.2033 7.52702L30 2L31.7967 7.52702L37.6085 7.52786L32.9072 10.9446L34.7023 16.4721L30 13.0568Z" fill="#F6A500" stroke="#F6A500"/>
<path fill-rule="evenodd" clip-rule="evenodd" d="M90 13.0568L85.2977 16.4721L87.0928 10.9446L82.3915 7.52786L88.2033 7.52702L90 2L91.7967 7.52702L97.6085 7.52786L92.9072 10.9446L94.7023 16.4721L90 13.0568Z" fill="#A3A3A3" fill-opacity="0.2" stroke="#A3A3A3"/>
<path fill-rule="evenodd" clip-rule="evenodd" d="M70 13.0568L65.2977 16.4721L67.0928 10.9446L62.3915 7.52786L68.2033 7.52702L70 2L71.7967 7.52702L77.6085 7.52786L72.9072 10.9446L74.7023 16.4721L70 13.0568Z" fill="#F6A500" stroke="#F6A500"/>
</svg>
