<svg width="18" height="19" viewBox="0 0 18 19" fill="none" xmlns="http://www.w3.org/2000/svg">
<path fill-rule="evenodd" clip-rule="evenodd" d="M12.0039 12.3689L16.9564 17.7624L12.0039 12.3689Z" fill="#313477"/>
<path d="M12.0039 12.3689L16.9564 17.7624" stroke="white" stroke-width="1.5" stroke-linecap="round"/>
<path d="M13.9586 7.39324C13.9586 11.0659 10.9981 14.0365 7.35432 14.0365C3.71058 14.0365 0.75 11.0659 0.75 7.39324C0.75 3.72054 3.71058 0.75 7.35432 0.75C10.9981 0.75 13.9586 3.72054 13.9586 7.39324Z" fill="white" fill-opacity="0.1" stroke="white" stroke-width="1.5"/>
</svg>
