<svg width="19" height="19" viewBox="0 0 19 19" fill="none" xmlns="http://www.w3.org/2000/svg">
<rect x="-0.00109863" width="19" height="19" rx="9.5" fill="#1895F5"/>
<path d="M5.96334 9.91422L8.08466 12.0355L13.0344 7.0858" stroke="white"/>
</svg>
