<svg width="17" height="16" viewBox="0 0 17 16" fill="none" xmlns="http://www.w3.org/2000/svg">
<path d="M11.5232 6.16247C11.5366 5.8059 11.2581 5.50615 10.9015 5.49344C10.5459 5.48077 10.2472 5.75834 10.2338 6.11386L10.0029 12.2395C9.98943 12.5961 10.268 12.8959 10.6247 12.9086C10.9802 12.9212 11.2788 12.6436 11.2922 12.2882L11.5232 6.16247Z" fill="#666666"/>
<rect x="7.76367" y="5.49347" width="1.29029" height="7.41516" rx="0.645145" fill="#666666"/>
<path d="M6.19249 12.9084C6.54908 12.8957 6.82763 12.596 6.81419 12.2394L6.58324 6.11363C6.56984 5.7581 6.27114 5.48054 5.91558 5.49321C5.55899 5.50593 5.28044 5.80568 5.29389 6.16224L5.52486 12.288C5.53827 12.6436 5.83695 12.9211 6.19249 12.9084Z" fill="#666666"/>
<path fill-rule="evenodd" clip-rule="evenodd" d="M0.730469 3.02872C0.730469 2.68265 1.01102 2.4021 1.35709 2.4021H15.4584C15.8045 2.4021 16.0851 2.68265 16.0851 3.02872C16.0851 3.3748 15.8045 3.65535 15.4584 3.65535H14.7188L13.6522 15.4281C13.6232 15.7517 13.344 16 13.0096 16H3.78416C3.44978 16 3.17084 15.7518 3.14159 15.4283L2.07497 3.65535H1.35709C1.01102 3.65535 0.730469 3.3748 0.730469 3.02872ZM4.37532 14.7467H12.4191L13.424 3.65533H3.37061L4.37532 14.7467Z" fill="#666666"/>
<path d="M10.5149 0H6.29985C5.70696 0 5.22461 0.4685 5.22461 1.04438V3.02872H6.5149V1.25325H10.2998V3.02872H11.5901V1.04438C11.5901 0.4685 11.1077 0 10.5149 0Z" fill="#666666"/>
</svg>
